game_id,shooter,assister,team,x,y,made,value,zone,side
0021800668,Devin Booker,,PHX,14,129,False,2,ShortMid,C
0021800668,Serge Ibaka,,TOR,123,153,False,2,Mid,RC
0021800668,Mikal Bridges,,PHX,226,-1,False,3,Corner3,R
0021800668,Danny Green,,TOR,232,1,False,3,Corner3,R
0021800668,Serge Ibaka,,TOR,-45,63,True,2,ShortMid,C
0021800668,Devin Booker,,PHX,39,113,True,2,ShortMid,C
0021800668,Fred VanVleet,Kyle Lowry,TOR,-2,7,True,2,RA,C
0021800668,T.J. Warren,,PHX,-22,63,False,2,ShortMid,C
0021800668,Devin Booker,De'Anthony Melton,PHX,141,209,True,3,Top3,RC
0021800668,Serge Ibaka,Pascal Siakam,TOR,-46,48,True,2,ShortMid,C
0021800668,Devin Booker,,PHX,-101,232,False,3,Top3,LC
0021800668,Deandre Ayton,,PHX,0,-6,True,2,RA,C
0021800668,Fred VanVleet,,TOR,-11,123,True,2,ShortMid,C
0021800668,T.J. Warren,,PHX,11,-1,False,2,RA,C
0021800668,Pascal Siakam,,TOR,230,22,False,3,Corner3,R
0021800668,Fred VanVleet,,TOR,-24,8,False,2,RA,C
0021800668,T.J. Warren,Mikal Bridges,PHX,121,-13,True,2,Mid,R
0021800668,Pascal Siakam,Serge Ibaka,TOR,6,4,True,2,RA,C
0021800668,Deandre Ayton,De'Anthony Melton,PHX,143,26,True,2,Mid,R
0021800668,Kyle Lowry,Fred VanVleet,TOR,-110,275,True,3,Top3,LC
0021800668,De'Anthony Melton,,PHX,-123,218,False,3,Top3,LC
0021800668,Kyle Lowry,,TOR,68,251,False,3,Top3,C
0021800668,Devin Booker,,PHX,-8,-2,False,2,RA,C
0021800668,Devin Booker,,PHX,-69,243,False,3,Top3,C
0021800668,T.J. Warren,,PHX,-236,-8,False,3,Corner3,L
0021800668,Danny Green,Pascal Siakam,TOR,-239,5,True,3,Corner3,L
0021800668,T.J. Warren,,PHX,99,4,False,2,Mid,R
0021800668,Fred VanVleet,Pascal Siakam,TOR,-172,211,True,3,Top3,LC
0021800668,Pascal Siakam,,TOR,38,47,True,2,ShortMid,C
0021800668,Elie Okobo,,PHX,-91,247,False,3,Top3,LC
0021800668,Devin Booker,,PHX,2,-4,True,2,RA,C
0021800668,Delon Wright,Pascal Siakam,TOR,-1,6,True,2,RA,C
0021800668,Deandre Ayton,,PHX,101,157,True,2,Mid,RC
0021800668,CJ Miles,,TOR,106,50,True,2,Mid,R
0021800668,Devin Booker,,PHX,7,8,True,2,RA,C
0021800668,Fred VanVleet,,TOR,-163,237,False,3,Top3,LC
0021800668,Devin Booker,,PHX,-133,22,False,2,Mid,L
0021800668,CJ Miles,Delon Wright,TOR,48,256,True,3,Top3,C
0021800668,Kelly Oubre Jr.,,PHX,54,3,False,2,ShortMid,C
0021800668,CJ Miles,Delon Wright,TOR,42,27,True,2,ShortMid,C
0021800668,Richaun Holmes,,PHX,-26,25,False,2,RA,C
0021800668,Kyle Lowry,,TOR,-171,202,False,3,Top3,LC
0021800668,Greg Monroe,,TOR,-18,5,False,2,RA,C
0021800668,Greg Monroe,,TOR,-16,7,True,2,RA,C
0021800668,Elie Okobo,,PHX,-2,99,True,2,ShortMid,C
0021800668,Delon Wright,,TOR,-90,70,False,2,Mid,L
0021800668,Greg Monroe,,TOR,0,-6,True,2,RA,C
0021800668,Kelly Oubre Jr.,,PHX,-30,34,False,2,ShortMid,C
0021800668,Kelly Oubre Jr.,,PHX,-228,22,True,3,Corner3,L
0021800668,Delon Wright,,TOR,2,10,True,2,RA,C
0021800668,Richaun Holmes,,PHX,28,77,False,2,ShortMid,C
0021800668,Delon Wright,,TOR,10,8,True,2,RA,C
0021800668,Josh Jackson,,PHX,-86,239,False,3,Top3,LC
0021800668,Elie Okobo,Richaun Holmes,PHX,-217,141,True,3,Top3,LC
0021800668,Greg Monroe,CJ Miles,TOR,-9,64,True,2,ShortMid,C
0021800668,Kelly Oubre Jr.,,PHX,-138,127,False,2,Mid,LC
0021800668,Kyle Lowry,,TOR,81,247,False,3,Top3,RC
0021800668,T.J. Warren,,PHX,-95,-1,False,2,Mid,L
0021800668,Kelly Oubre Jr.,,PHX,0,-6,False,2,RA,C
0021800668,Greg Monroe,,TOR,-30,18,False,2,RA,C
0021800668,Deandre Ayton,,PHX,-5,80,True,2,ShortMid,C
0021800668,Kyle Lowry,Delon Wright,TOR,-7,17,True,2,RA,C
0021800668,Kelly Oubre Jr.,,PHX,22,48,False,2,ShortMid,C
0021800668,Devin Booker,,PHX,-8,150,False,2,Mid,C
0021800668,Deandre Ayton,,PHX,-11,-5,False,2,RA,C
0021800668,Deandre Ayton,,PHX,0,-6,True,2,RA,C
0021800668,Kelly Oubre Jr.,Deandre Ayton,PHX,5,-1,True,2,RA,C
0021800668,Serge Ibaka,,TOR,-188,176,False,3,Top3,LC
0021800668,Deandre Ayton,,PHX,24,41,True,2,ShortMid,C
0021800668,Patrick McCaw,,TOR,-171,196,False,3,Top3,LC
0021800668,T.J. Warren,,PHX,-26,48,False,2,ShortMid,C
0021800668,Fred VanVleet,,TOR,53,196,True,2,Mid,C
0021800668,Devin Booker,,PHX,7,5,True,2,RA,C
0021800668,Serge Ibaka,Fred VanVleet,TOR,2,15,True,2,RA,C
0021800668,Devin Booker,Deandre Ayton,PHX,3,132,True,2,ShortMid,C
0021800668,Serge Ibaka,Pascal Siakam,TOR,-1,11,True,2,RA,C
0021800668,Kelly Oubre Jr.,,PHX,-81,257,False,3,Top3,C
0021800668,Serge Ibaka,,TOR,-55,101,False,2,ShortMid,C
0021800668,Fred VanVleet,Kyle Lowry,TOR,4,13,True,2,RA,C
0021800668,Kelly Oubre Jr.,,PHX,67,245,False,3,Top3,C
0021800668,Fred VanVleet,,TOR,54,121,False,2,ShortMid,C
0021800668,Kelly Oubre Jr.,,PHX,-24,37,False,2,ShortMid,C
0021800668,Deandre Ayton,,PHX,8,-1,False,2,RA,C
0021800668,T.J. Warren,Mikal Bridges,PHX,65,251,True,3,Top3,C
0021800668,Serge Ibaka,Norman Powell,TOR,13,4,True,2,RA,C
0021800668,Devin Booker,,PHX,-119,237,False,3,Top3,LC
0021800668,Serge Ibaka,,TOR,5,21,False,2,RA,C
0021800668,Danny Green,,TOR,-125,14,False,2,Mid,L
0021800668,Serge Ibaka,,TOR,9,157,False,2,Mid,C
0021800668,Devin Booker,,PHX,-6,254,True,3,Top3,C
0021800668,Pascal Siakam,,TOR,236,3,False,3,Corner3,R
0021800668,Devin Booker,,PHX,119,232,False,3,Top3,RC
0021800668,De'Anthony Melton,,PHX,-236,57,False,3,Corner3,L
0021800668,Kyle Lowry,,TOR,11,101,False,2,ShortMid,C
0021800668,T.J. Warren,,PHX,118,22,True,2,Mid,R
0021800668,Fred VanVleet,,TOR,13,5,False,2,RA,C
0021800668,De'Anthony Melton,Devin Booker,PHX,-1,6,True,2,RA,C
0021800668,De'Anthony Melton,,PHX,125,134,False,2,Mid,RC
0021800668,Danny Green,Kyle Lowry,TOR,-19,210,True,2,Mid,C
0021800668,Mikal Bridges,,PHX,-160,197,False,3,Top3,LC
0021800668,Pascal Siakam,,TOR,39,14,True,2,ShortMid,C
0021800668,T.J. Warren,Devin Booker,PHX,-6,13,True,2,RA,C
0021800668,Kyle Lowry,,TOR,3,-5,True,2,RA,C
0021800668,Kyle Lowry,,TOR,-109,241,False,3,Top3,LC
0021800668,Serge Ibaka,,TOR,61,182,False,2,Mid,RC
0021800668,Mikal Bridges,,PHX,-166,204,False,3,Top3,LC
0021800668,Serge Ibaka,Danny Green,TOR,2,0,True,2,RA,C
0021800668,Mikal Bridges,Devin Booker,PHX,-236,6,True,3,Corner3,L
0021800668,Devin Booker,,PHX,102,55,False,2,Mid,R
0021800668,Fred VanVleet,,TOR,-188,172,False,3,Top3,LC
0021800668,Danny Green,Norman Powell,TOR,12,-5,True,2,RA,C
0021800668,Norman Powell,,TOR,-230,-11,False,3,Corner3,L
0021800668,Richaun Holmes,Devin Booker,PHX,2,22,True,2,RA,C
0021800668,Norman Powell,,TOR,-16,10,False,2,RA,C
0021800668,Mikal Bridges,,PHX,24,11,True,2,RA,C
0021800668,Serge Ibaka,Fred VanVleet,TOR,3,159,True,2,Mid,C
0021800668,Josh Jackson,Mikal Bridges,PHX,-13,7,True,2,RA,C
0021800668,Greg Monroe,,TOR,-5,31,False,2,RA,C
0021800668,Quincy Acy,,PHX,-229,8,False,3,Corner3,L
0021800668,Pascal Siakam,,TOR,-232,-2,False,3,Corner3,L
0021800668,Kelly Oubre Jr.,,PHX,-109,102,True,2,Mid,L
0021800668,Kyle Lowry,,TOR,-105,237,False,3,Top3,LC
0021800668,Greg Monroe,Delon Wright,TOR,-3,-7,True,2,RA,C
0021800668,Kyle Lowry,,TOR,-3,24,False,2,RA,C
0021800668,Devin Booker,,PHX,-14,2,False,2,RA,C
0021800668,Kyle Lowry,,TOR,5,434,False,3,Heave,BC
0021800668,Norman Powell,,TOR,-6,-5,True,2,RA,C
0021800668,Chris Boucher,,TOR,-54,247,False,3,Top3,C
0021800668,Kelly Oubre Jr.,,PHX,10,42,False,2,ShortMid,C
0021800668,Kelly Oubre Jr.,,PHX,198,176,False,3,Top3,RC
0021800668,CJ Miles,Kyle Lowry,TOR,-20,256,True,3,Top3,C
0021800668,T.J. Warren,,PHX,-2,20,True,2,RA,C
0021800668,Norman Powell,,TOR,-138,77,False,2,Mid,L
0021800668,Kyle Lowry,,TOR,235,11,False,3,Corner3,R
0021800668,T.J. Warren,,PHX,-14,10,False,2,RA,C
0021800668,Josh Jackson,Devin Booker,PHX,32,257,True,3,Top3,C
0021800668,CJ Miles,Delon Wright,TOR,237,-11,True,3,Corner3,R
0021800668,Kelly Oubre Jr.,,PHX,-182,186,False,3,Top3,LC
0021800668,CJ Miles,,TOR,-231,-4,False,3,Corner3,L
0021800668,Josh Jackson,Devin Booker,PHX,0,16,True,2,RA,C
0021800668,Delon Wright,,TOR,2,24,True,2,RA,C
0021800668,Chris Boucher,Kyle Lowry,TOR,-8,-5,True,2,RA,C
0021800668,Kyle Lowry,,TOR,-64,251,True,3,Top3,C
0021800668,Chris Boucher,,TOR,24,34,False,2,ShortMid,C
0021800668,Devin Booker,,PHX,4,6,True,2,RA,C
0021800668,Serge Ibaka,,TOR,9,19,False,2,RA,C
0021800668,T.J. Warren,,PHX,-14,15,False,2,RA,C
0021800668,CJ Miles,,TOR,85,241,False,3,Top3,RC
0021800668,T.J. Warren,,PHX,-149,251,False,3,Top3,LC
0021800668,Serge Ibaka,Kyle Lowry,TOR,-107,137,True,2,Mid,LC
0021800668,Mikal Bridges,Kelly Oubre Jr.,PHX,-54,123,True,2,ShortMid,C
0021800668,Serge Ibaka,Kyle Lowry,TOR,1,-1,True,2,RA,C
0021800668,Kyle Lowry,,TOR,-185,173,False,3,Top3,LC
0021800668,Mikal Bridges,Devin Booker,PHX,14,12,True,2,RA,C
0021800668,Serge Ibaka,Kyle Lowry,TOR,79,167,True,2,Mid,RC
0021800668,Devin Booker,,PHX,81,244,True,3,Top3,RC
0021800668,Devin Booker,,PHX,-79,257,False,3,Top3,C
0021800668,Danny Green,,TOR,237,8,False,3,Corner3,R
0021800668,Pascal Siakam,,TOR,-25,32,False,2,ShortMid,C
0021800668,Mikal Bridges,Devin Booker,PHX,-201,2,True,2,Mid,L
0021800668,Fred VanVleet,,TOR,-10,3,True,2,RA,C
0021800668,T.J. Warren,,PHX,-18,10,False,2,RA,C
0021800668,Devin Booker,Mikal Bridges,PHX,60,254,True,3,Top3,C
0021800668,Serge Ibaka,,TOR,28,24,False,2,RA,C
0021800668,T.J. Warren,,PHX,-166,210,False,3,Top3,LC
0021800668,Serge Ibaka,Fred VanVleet,TOR,-9,38,True,2,RA,C
0021800668,Kelly Oubre Jr.,,PHX,230,4,False,3,Corner3,R
0021800668,Kyle Lowry,,TOR,-49,195,False,2,Mid,C
0021800668,Pascal Siakam,,TOR,-16,-8,True,2,RA,C
0021800665,Kevin Knox,,NYK,-152,197,False,3,Top3,LC
0021800665,Thomas Bryant,,WAS,-122,86,False,2,Mid,L
0021800665,Tomas Satoransky,Bradley Beal,WAS,2,16,True,2,RA,C
0021800665,Luke Kornet,,NYK,-35,264,False,3,Top3,C
0021800665,Trevor Ariza,,WAS,230,85,False,3,Corner3,R
0021800665,Luke Kornet,Emmanuel Mudiay,NYK,-16,247,True,3,Top3,C
0021800665,Trevor Ariza,,WAS,-74,13,False,2,ShortMid,C
0021800665,Jeff Green,,WAS,48,253,False,3,Top3,C
0021800665,Emmanuel Mudiay,,NYK,13,25,True,2,RA,C
0021800665,Bradley Beal,,WAS,13,5,False,2,RA,C
0021800665,Tim Hardaway Jr.,,NYK,18,179,False,2,Mid,C
0021800665,Jeff Green,,WAS,89,17,False,2,Mid,R
0021800665,Noah Vonleh,,NYK,-67,261,False,3,Top3,C
0021800665,Thomas Bryant,Trevor Ariza,WAS,16,7,True,2,RA,C
0021800665,Emmanuel Mudiay,,NYK,8,19,True,2,RA,C
0021800665,Thomas Bryant,Trevor Ariza,WAS,16,5,True,2,RA,C
0021800665,Emmanuel Mudiay,,NYK,-136,224,False,3,Top3,LC
0021800665,Kevin Knox,,NYK,207,169,False,3,Top3,RC
0021800665,Tim Hardaway Jr.,,NYK,-109,105,False,2,Mid,L
0021800665,Noah Vonleh,Tim Hardaway Jr.,NYK,30,17,True,2,RA,C
0021800665,Trevor Ariza,Jeff Green,WAS,231,122,True,3,Top3,RC
0021800665,Noah Vonleh,,NYK,23,61,True,2,ShortMid,C
0021800665,Thomas Bryant,Trevor Ariza,WAS,10,2,True,2,RA,C
0021800665,Kevin Knox,,NYK,12,17,True,2,RA,C
0021800665,Tomas Satoransky,,WAS,-27,127,True,2,ShortMid,C
0021800665,Tim Hardaway Jr.,,NYK,163,226,False,3,Top3,RC
0021800665,Jeff Green,,WAS,-234,-15,False,3,Corner3,L
0021800665,Luke Kornet,,NYK,22,79,False,2,ShortMid,C
0021800665,Noah Vonleh,,NYK,20,48,False,2,ShortMid,C
0021800665,Bradley Beal,,WAS,3,58,False,2,ShortMid,C
0021800665,Luke Kornet,Damyean Dotson,NYK,89,256,True,3,Top3,RC
0021800665,Bradley Beal,,WAS,-49,262,False,3,Top3,C
0021800665,Frank Ntilikina,,NYK,13,20,False,2,RA,C
0021800665,Luke Kornet,,NYK,0,-6,False,2,RA,C
0021800665,Kevin Knox,,NYK,-15,98,False,2,ShortMid,C
0021800665,Bradley Beal,,WAS,-28,94,False,2,ShortMid,C
0021800665,Luke Kornet,,NYK,-154,220,False,3,Top3,LC
0021800665,Trevor Ariza,,WAS,-236,36,False,3,Corner3,L
0021800665,Otto Porter Jr.,,WAS,171,184,False,3,Top3,RC
0021800665,Frank Ntilikina,,NYK,94,250,True,3,Top3,RC
0021800665,Bradley Beal,,WAS,19,6,True,2,RA,C
0021800665,Damyean Dotson,Luke Kornet,NYK,105,150,True,2,Mid,RC
0021800665,Otto Porter Jr.,,WAS,-176,59,False,2,Mid,L
0021800665,Luke Kornet,Allonzo Trier,NYK,-81,252,True,3,Top3,C
0021800665,Otto Porter Jr.,,WAS,125,69,False,2,Mid,R
0021800665,Luke Kornet,Allonzo Trier,NYK,-222,3,True,3,Corner3,L
0021800665,Tomas Satoransky,,WAS,8,58,False,2,ShortMid,C
0021800665,Sam Dekker,,WAS,-3,11,False,2,RA,C
0021800665,Sam Dekker,,WAS,-22,29,False,2,RA,C
0021800665,Chasson Randle,,WAS,-11,4,True,2,RA,C
0021800665,Damyean Dotson,Frank Ntilikina,NYK,134,242,True,3,Top3,RC
0021800665,Chasson Randle,,WAS,-14,0,True,2,RA,C
0021800665,Mario Hezonja,,NYK,-27,92,False,2,ShortMid,C
0021800665,Otto Porter Jr.,Sam Dekker,WAS,59,106,True,2,ShortMid,C
0021800665,Mitchell Robinson,Allonzo Trier,NYK,0,10,True,2,RA,C
0021800665,Sam Dekker,Tomas Satoransky,WAS,18,4,True,2,RA,C
0021800665,Allonzo Trier,,NYK,-193,167,False,3,Top3,LC
0021800665,Otto Porter Jr.,Sam Dekker,WAS,130,-13,True,2,Mid,R
0021800665,Allonzo Trier,,NYK,92,151,True,2,Mid,RC
0021800665,Chasson Randle,,WAS,230,60,False,3,Corner3,R
0021800665,Damyean Dotson,Mario Hezonja,NYK,23,27,True,2,RA,C
0021800665,Otto Porter Jr.,Tomas Satoransky,WAS,3,1,True,2,RA,C
0021800665,Frank Ntilikina,,NYK,29,100,False,2,ShortMid,C
0021800665,Damyean Dotson,,NYK,123,257,True,3,Top3,RC
0021800665,Sam Dekker,Ian Mahinmi,WAS,-18,0,True,2,RA,C
0021800665,Allonzo Trier,Damyean Dotson,NYK,5,53,True,2,ShortMid,C
0021800665,Otto Porter Jr.,,WAS,-141,227,False,3,Top3,LC
0021800665,Frank Ntilikina,,NYK,103,183,False,2,Mid,RC
0021800665,Bradley Beal,,WAS,120,32,False,2,Mid,R
0021800665,Sam Dekker,,WAS,-12,12,True,2,RA,C
0021800665,Allonzo Trier,,NYK,119,124,False,2,Mid,RC
0021800665,Allonzo Trier,,NYK,19,8,True,2,RA,C
0021800665,Trevor Ariza,,WAS,179,195,False,3,Top3,RC
0021800665,Tomas Satoransky,,WAS,0,-6,True,2,RA,C
0021800665,Damyean Dotson,Frank Ntilikina,NYK,99,245,True,3,Top3,RC
0021800665,Allonzo Trier,,NYK,11,21,True,2,RA,C
0021800665,Tomas Satoransky,,WAS,15,137,False,2,ShortMid,C
0021800665,Damyean Dotson,,NYK,-63,266,False,3,Top3,C
0021800665,Bradley Beal,,WAS,-158,216,False,3,Top3,LC
0021800665,Tim Hardaway Jr.,,NYK,154,211,True,3,Top3,RC
0021800665,Noah Vonleh,,NYK,5,22,False,2,RA,C
0021800665,Trevor Ariza,Tomas Satoransky,WAS,183,181,True,3,Top3,RC
0021800665,Noah Vonleh,,NYK,-90,11,False,2,Mid,L
0021800665,Luke Kornet,,NYK,30,124,False,2,ShortMid,C
0021800665,Noah Vonleh,,NYK,17,16,True,2,RA,C
0021800665,Bradley Beal,Trevor Ariza,WAS,14,52,True,2,ShortMid,C
0021800665,Tomas Satoransky,Bradley Beal,WAS,214,126,True,3,Top3,RC
0021800665,Kevin Knox,,NYK,-81,48,False,2,Mid,L
0021800665,Bradley Beal,,WAS,98,162,True,2,Mid,RC
0021800665,Emmanuel Mudiay,,NYK,-48,155,True,2,Mid,C
0021800665,Tomas Satoransky,Trevor Ariza,WAS,227,59,True,3,Corner3,R
0021800665,Bradley Beal,,WAS,-2,16,True,2,RA,C
0021800665,Emmanuel Mudiay,,NYK,-13,4,True,2,RA,C
0021800665,Trevor Ariza,,WAS,98,420,False,3,Heave,BC
0021800665,Bradley Beal,,WAS,-71,156,False,2,Mid,LC
0021800665,Bradley Beal,,WAS,72,130,False,2,ShortMid,C
0021800665,Thomas Bryant,,WAS,9,24,True,2,RA,C
0021800665,Noah Vonleh,,NYK,-7,23,False,2,RA,C
0021800665,Bradley Beal,,WAS,-212,134,False,3,Top3,LC
0021800665,Kevin Knox,,NYK,188,176,False,3,Top3,RC
0021800665,Tomas Satoransky,,WAS,-5,8,True,2,RA,C
0021800665,Tim Hardaway Jr.,Luke Kornet,NYK,-12,259,True,3,Top3,C
0021800665,Bradley Beal,,WAS,-160,204,False,3,Top3,LC
0021800665,Emmanuel Mudiay,,NYK,19,0,True,2,RA,C
0021800665,Bradley Beal,,WAS,-3,24,False,2,RA,C
0021800665,Bradley Beal,,WAS,0,-6,True,2,RA,C
0021800665,Bradley Beal,Tomas Satoransky,WAS,0,15,True,2,RA,C
0021800665,Noah Vonleh,Kevin Knox,NYK,4,2,True,2,RA,C
0021800665,Bradley Beal,,WAS,-4,87,False,2,ShortMid,C
0021800665,Kevin Knox,,NYK,-28,43,False,2,ShortMid,C
0021800665,Kevin Knox,,NYK,-17,16,True,2,RA,C
0021800665,Thomas Bryant,,WAS,-96,67,False,2,Mid,L
0021800665,Luke Kornet,,NYK,-85,95,False,2,Mid,L
0021800665,Bradley Beal,,WAS,-212,120,False,3,Top3,LC
0021800665,Tim Hardaway Jr.,,NYK,221,143,False,3,Top3,RC
0021800665,Trevor Ariza,,WAS,30,25,False,2,RA,C
0021800665,Emmanuel Mudiay,,NYK,14,0,True,2,RA,C
0021800665,Otto Porter Jr.,,WAS,116,156,False,2,Mid,RC
0021800665,Tim Hardaway Jr.,,NYK,29,16,False,2,RA,C
0021800665,Otto Porter Jr.,Tomas Satoransky,WAS,-4,10,True,2,RA,C
0021800665,Emmanuel Mudiay,,NYK,-120,83,True,2,Mid,L
0021800665,Jeff Green,,WAS,-3,42,False,2,ShortMid,C
0021800665,Emmanuel Mudiay,,NYK,-93,142,True,2,Mid,LC
0021800665,Bradley Beal,,WAS,-82,125,True,2,Mid,L
0021800665,Luke Kornet,,NYK,19,121,True,2,ShortMid,C
0021800665,Damyean Dotson,,NYK,-107,63,False,2,Mid,L
0021800665,Emmanuel Mudiay,,NYK,3,5,True,2,RA,C
0021800665,Kevin Knox,,NYK,230,55,False,3,Corner3,R
0021800665,Trevor Ariza,,WAS,158,208,False,3,Top3,RC
0021800665,Emmanuel Mudiay,,NYK,-143,242,False,3,Top3,LC
0021800665,Bradley Beal,,WAS,22,9,False,2,RA,C
0021800665,Mario Hezonja,,NYK,122,41,False,2,Mid,R
0021800665,Otto Porter Jr.,,WAS,138,115,True,2,Mid,RC
0021800665,Frank Ntilikina,,NYK,125,41,False,2,Mid,R
0021800665,Troy Brown Jr.,Bradley Beal,WAS,9,11,True,2,RA,C
0021800665,Kevin Knox,,NYK,-175,191,False,3,Top3,LC
0021800665,Chasson Randle,,WAS,14,106,False,2,ShortMid,C
0021800665,Bradley Beal,,WAS,29,50,False,2,ShortMid,C
0021800665,Damyean Dotson,,NYK,92,183,False,2,Mid,RC
0021800665,Mitchell Robinson,,NYK,-23,18,True,2,RA,C
0021800665,Otto Porter Jr.,,WAS,8,17,False,2,RA,C
0021800665,Frank Ntilikina,,NYK,-136,251,False,3,Top3,LC
0021800665,Allonzo Trier,,NYK,154,216,True,3,Top3,RC
0021800665,Otto Porter Jr.,,WAS,117,36,False,2,Mid,R
0021800665,Frank Ntilikina,,NYK,19,1,False,2,RA,C
0021800665,Bradley Beal,,WAS,35,25,False,2,ShortMid,C
0021800665,Mario Hezonja,,NYK,185,90,False,2,Mid,R
0021800665,Mario Hezonja,,NYK,-225,7,False,3,Corner3,L
0021800665,Sam Dekker,,WAS,-21,19,False,2,RA,C
0021800665,Sam Dekker,Troy Brown Jr.,WAS,1,15,True,2,RA,C
0021800665,Troy Brown Jr.,,WAS,-209,137,False,3,Top3,LC
0021800665,Sam Dekker,Trevor Ariza,WAS,8,9,True,2,RA,C
0021800665,Emmanuel Mudiay,,NYK,-186,60,False,2,Mid,L
0021800665,Bradley Beal,,WAS,-2,255,True,3,Top3,C
0021800665,Emmanuel Mudiay,,NYK,37,34,True,2,ShortMid,C
0021800665,Otto Porter Jr.,,WAS,-22,255,True,3,Top3,C
0021800665,Emmanuel Mudiay,,NYK,-32,86,False,2,ShortMid,C
0021800665,Bradley Beal,Chasson Randle,WAS,170,278,True,3,Top3,RC
0021800665,Bradley Beal,,WAS,148,231,False,3,Top3,RC
0021800665,Emmanuel Mudiay,,NYK,141,69,False,2,Mid,R
0021800665,Trevor Ariza,,WAS,-211,147,False,3,Top3,LC
0021800665,Emmanuel Mudiay,,NYK,-8,23,False,2,RA,C
0021800665,Otto Porter Jr.,Trevor Ariza,WAS,123,172,True,2,Mid,RC
0021800665,Otto Porter Jr.,,WAS,-3,96,False,2,ShortMid,C
0021800665,Sam Dekker,,WAS,27,32,False,2,ShortMid,C
0021800665,Chasson Randle,,WAS,28,22,False,2,RA,C
0021800665,Otto Porter Jr.,,WAS,0,-6,True,2,RA,C
0021800665,Bradley Beal,,WAS,7,9,False,2,RA,C
0021800665,Chasson Randle,,WAS,-232,74,False,3,Corner3,L
0021800665,Allonzo Trier,,NYK,-117,113,False,2,Mid,LC
0021800665,Bradley Beal,,WAS,-9,188,True,2,Mid,C
0021800665,Noah Vonleh,Emmanuel Mudiay,NYK,-41,43,True,2,ShortMid,C
0021800665,Emmanuel Mudiay,Noah Vonleh,NYK,-185,179,True,3,Top3,LC
0021800665,Trevor Ariza,Chasson Randle,WAS,-6,22,True,2,RA,C
0021800665,Noah Vonleh,,NYK,-27,23,True,2,RA,C
0021800665,Bradley Beal,,WAS,157,239,False,3,Top3,RC
0021800665,Kevin Knox,,NYK,-176,197,False,3,Top3,LC
0021800665,Thomas Bryant,Bradley Beal,WAS,16,53,True,2,ShortMid,C
0021800665,Emmanuel Mudiay,,NYK,-107,172,False,2,Mid,LC
0021800670,Tyson Chandler,Lonzo Ball,LAL,6,0,True,2,RA,C
0021800670,Russell Westbrook,,OKC,115,95,False,2,Mid,R
0021800670,Jerami Grant,Russell Westbrook,OKC,-3,8,True,2,RA,C
0021800670,Steven Adams,Jerami Grant,OKC,1,9,True,2,RA,C
0021800670,Lonzo Ball,Brandon Ingram,LAL,-179,-9,True,2,Mid,L
0021800670,Terrance Ferguson,,OKC,61,50,False,2,ShortMid,C
0021800670,Steven Adams,Russell Westbrook,OKC,3,8,True,2,RA,C
0021800670,Tyson Chandler,,LAL,59,20,False,2,ShortMid,C
0021800670,Terrance Ferguson,Russell Westbrook,OKC,-207,150,True,3,Top3,LC
0021800670,Brandon Ingram,,LAL,-34,33,False,2,ShortMid,C
0021800670,Russell Westbrook,,OKC,-162,124,False,2,Mid,LC
0021800670,Kyle Kuzma,Brandon Ingram,LAL,228,-5,True,3,Corner3,R
0021800670,Steven Adams,,OKC,-13,-2,True,2,RA,C
0021800670,Paul George,,OKC,-160,198,True,3,Top3,LC
0021800670,Kyle Kuzma,Brandon Ingram,LAL,111,223,True,3,Top3,RC
0021800670,Russell Westbrook,Terrance Ferguson,OKC,-136,94,True,2,Mid,L
0021800670,JaVale McGee,Brandon Ingram,LAL,57,20,True,2,ShortMid,C
0021800670,Russell Westbrook,,OKC,-144,204,False,3,Top3,LC
0021800670,Russell Westbrook,Paul George,OKC,112,226,True,3,Top3,RC
0021800670,Kyle Kuzma,,LAL,138,215,True,3,Top3,RC
0021800670,Jerami Grant,,OKC,7,-6,False,2,RA,C
0021800670,Kentavious Caldwell-Pope,Lonzo Ball,LAL,0,8,True,2,RA,C
0021800670,Terrance Ferguson,Russell Westbrook,OKC,-223,1,True,3,Corner3,L
0021800670,Lonzo Ball,,LAL,-199,148,False,3,Top3,LC
0021800670,Russell Westbrook,,OKC,-128,99,False,2,Mid,LC
0021800670,Kyle Kuzma,,LAL,-19,252,False,3,Top3,C
0021800670,Jerami Grant,Russell Westbrook,OKC,230,21,True,3,Corner3,R
0021800670,Paul George,,OKC,103,19,True,2,Mid,R
0021800670,Brandon Ingram,,LAL,222,-1,False,3,Corner3,R
0021800670,Jerami Grant,,OKC,30,35,True,2,ShortMid,C
0021800670,Kentavious Caldwell-Pope,Josh Hart,LAL,-226,0,True,3,Corner3,L
0021800670,Paul George,,OKC,14,3,False,2,RA,C
0021800670,Paul George,Steven Adams,OKC,229,24,True,3,Corner3,R
0021800670,Michael Beasley,,LAL,-229,4,False,3,Corner3,L
0021800670,Ivica Zubac,Brandon Ingram,LAL,2,-5,True,2,RA,C
0021800670,Dennis Schroder,,OKC,-156,190,False,3,Top3,LC
0021800670,Michael Beasley,,LAL,140,36,False,2,Mid,R
0021800670,Abdel Nader,,OKC,27,100,False,2,ShortMid,C
0021800670,Kentavious Caldwell-Pope,Brandon Ingram,LAL,-224,85,True,3,Corner3,L
0021800670,Nerlens Noel,Dennis Schroder,OKC,-42,77,True,2,ShortMid,C
0021800670,Michael Beasley,,LAL,9,31,True,2,RA,C
0021800670,Paul George,,OKC,212,206,False,3,Top3,RC
0021800670,Svi Mykhailiuk,,LAL,134,205,False,3,Top3,RC
0021800670,Josh Hart,,LAL,217,116,False,3,Top3,RC
0021800670,Patrick Patterson,,OKC,-5,253,False,3,Top3,C
0021800670,Ivica Zubac,Michael Beasley,LAL,-60,104,True,2,ShortMid,C
0021800670,Patrick Patterson,Dennis Schroder,OKC,-144,206,True,3,Top3,LC
0021800670,Michael Beasley,,LAL,15,6,True,2,RA,C
0021800670,Nerlens Noel,,OKC,-2,9,False,2,RA,C
0021800670,Dennis Schroder,,OKC,13,256,False,3,Top3,C
0021800670,Josh Hart,Lance Stephenson,LAL,-7,8,True,2,RA,C
0021800670,Abdel Nader,,OKC,228,16,False,3,Corner3,R
0021800670,Ivica Zubac,Josh Hart,LAL,25,16,True,2,RA,C
0021800670,Dennis Schroder,Patrick Patterson,OKC,-144,124,True,2,Mid,LC
0021800670,Hamidou Diallo,,OKC,-233,-8,False,3,Corner3,L
0021800670,Josh Hart,,LAL,6,7,False,2,RA,C
0021800670,Ivica Zubac,,LAL,0,-6,True,2,RA,C
0021800670,Josh Hart,,LAL,-145,202,True,3,Top3,LC
0021800670,Russell Westbrook,,OKC,-157,126,False,2,Mid,LC
0021800670,Kyle Kuzma,,LAL,112,-6,True,2,Mid,R
0021800670,Terrance Ferguson,,OKC,207,140,False,3,Top3,RC
0021800670,Svi Mykhailiuk,,LAL,-231,10,False,3,Corner3,L
0021800670,Russell Westbrook,,OKC,-15,5,False,2,RA,C
0021800670,Russell Westbrook,,OKC,62,126,False,2,ShortMid,C
0021800670,Kyle Kuzma,,LAL,8,12,False,2,RA,C
0021800670,Russell Westbrook,Paul George,OKC,226,6,True,3,Corner3,R
0021800670,Josh Hart,Lonzo Ball,LAL,-225,-1,True,3,Corner3,L
0021800670,Russell Westbrook,,OKC,65,78,False,2,ShortMid,R
0021800670,Tyson Chandler,Brandon Ingram,LAL,2,22,True,2,RA,C
0021800670,Paul George,,OKC,-157,193,True,3,Top3,LC
0021800670,Lonzo Ball,,LAL,98,169,False,2,Mid,RC
0021800670,Terrance Ferguson,Russell Westbrook,OKC,176,179,True,3,Top3,RC
0021800670,Lonzo Ball,,LAL,42,6,False,2,ShortMid,C
0021800670,Tyson Chandler,,LAL,-3,7,False,2,RA,C
0021800670,Steven Adams,,OKC,14,40,False,2,ShortMid,C
0021800670,Terrance Ferguson,Paul George,OKC,-227,-11,True,3,Corner3,L
0021800670,Moritz Wagner,Lonzo Ball,LAL,-93,254,True,3,Top3,LC
0021800670,Paul George,Russell Westbrook,OKC,79,161,True,2,Mid,RC
0021800670,Lonzo Ball,Brandon Ingram,LAL,-5,13,True,2,RA,C
0021800670,Terrance Ferguson,Paul George,OKC,-231,-15,True,3,Corner3,L
0021800670,Lonzo Ball,,LAL,167,60,False,2,Mid,R
0021800670,Russell Westbrook,,OKC,-42,21,False,2,ShortMid,C
0021800670,Jerami Grant,,OKC,-59,31,False,2,ShortMid,C
0021800670,Steven Adams,,OKC,-33,142,True,2,Mid,C
0021800670,Lonzo Ball,,LAL,-229,29,False,3,Corner3,L
0021800670,Russell Westbrook,,OKC,-232,75,False,3,Corner3,L
0021800670,Lonzo Ball,Brandon Ingram,LAL,231,-21,True,3,Corner3,R
0021800670,Russell Westbrook,,OKC,111,237,False,3,Top3,RC
0021800670,Lonzo Ball,Kentavious Caldwell-Pope,LAL,160,217,True,3,Top3,RC
0021800670,Jerami Grant,,OKC,30,260,False,3,Top3,C
0021800670,Paul George,,OKC,70,253,False,3,Top3,C
0021800670,Lonzo Ball,,LAL,230,816,False,3,Heave,BC
0021800670,Brandon Ingram,,LAL,143,219,False,3,Top3,RC
0021800670,Russell Westbrook,Paul George,OKC,-172,196,True,3,Top3,LC
0021800670,Brandon Ingram,,LAL,-25,48,False,2,ShortMid,C
0021800670,Tyson Chandler,,LAL,0,-6,False,2,RA,C
0021800670,Paul George,,OKC,203,-8,True,2,Mid,R
0021800670,Kentavious Caldwell-Pope,,LAL,8,211,False,2,Mid,C
0021800670,Steven Adams,,OKC,-67,28,False,2,ShortMid,C
0021800670,Kentavious Caldwell-Pope,Lonzo Ball,LAL,11,256,True,3,Top3,C
0021800670,Jerami Grant,,OKC,6,38,False,2,RA,C
0021800670,Steven Adams,,OKC,0,-6,False,2,RA,C
0021800670,Lonzo Ball,Kyle Kuzma,LAL,168,208,True,3,Top3,RC
0021800670,Steven Adams,Russell Westbrook,OKC,-1,62,True,2,ShortMid,C
0021800670,Kentavious Caldwell-Pope,,LAL,-214,125,False,3,Top3,LC
0021800670,Tyson Chandler,Lonzo Ball,LAL,1,4,True,2,RA,C
0021800670,Kentavious Caldwell-Pope,,LAL,6,16,True,2,RA,C
0021800670,Paul George,Terrance Ferguson,OKC,124,228,True,3,Top3,RC
0021800670,Brandon Ingram,,LAL,-19,19,False,2,RA,C
0021800670,Paul George,,OKC,119,236,False,3,Top3,RC
0021800670,Lonzo Ball,,LAL,-231,80,False,3,Corner3,L
0021800670,Russell Westbrook,,OKC,-217,131,True,3,Top3,LC
0021800670,Kyle Kuzma,Brandon Ingram,LAL,-10,258,True,3,Top3,C
0021800670,Russell Westbrook,,OKC,-106,146,False,2,Mid,LC
0021800670,Brandon Ingram,,LAL,57,83,False,2,ShortMid,R
0021800670,Dennis Schroder,,OKC,-85,244,False,3,Top3,LC
0021800670,Russell Westbrook,,OKC,-8,34,False,2,RA,C
0021800670,Kyle Kuzma,Brandon Ingram,LAL,-14,263,True,3,Top3,C
0021800670,Paul George,,OKC,-19,8,True,2,RA,C
0021800670,Brandon Ingram,,LAL,-18,126,False,2,ShortMid,C
0021800670,Russell Westbrook,,OKC,11,25,False,2,RA,C
0021800670,Russell Westbrook,,OKC,9,10,True,2,RA,C
0021800670,Kyle Kuzma,,LAL,-8,136,False,2,ShortMid,C
0021800670,JaVale McGee,,LAL,0,-6,True,2,RA,C
0021800670,Kyle Kuzma,,LAL,-69,255,False,3,Top3,C
0021800670,Dennis Schroder,Russell Westbrook,OKC,124,220,True,3,Top3,RC
0021800670,Nerlens Noel,Russell Westbrook,OKC,-71,8,True,2,ShortMid,C
0021800670,Svi Mykhailiuk,Josh Hart,LAL,230,27,True,3,Corner3,R
0021800670,Svi Mykhailiuk,,LAL,55,252,False,3,Top3,C
0021800670,Paul George,,OKC,75,46,False,2,ShortMid,R
0021800670,Ivica Zubac,Kyle Kuzma,LAL,-3,13,True,2,RA,C
0021800670,Paul George,Nerlens Noel,OKC,-128,211,True,3,Top3,LC
0021800670,Dennis Schroder,,OKC,-152,216,False,3,Top3,LC
0021800670,Kyle Kuzma,,LAL,52,24,True,2,ShortMid,C
0021800670,Josh Hart,,LAL,-141,222,False,3,Top3,LC
0021800670,Abdel Nader,,OKC,176,174,False,3,Top3,RC
0021800670,Ivica Zubac,Lance Stephenson,LAL,-35,5,True,2,RA,C
0021800670,Dennis Schroder,Paul George,OKC,85,109,True,2,Mid,R
0021800670,Lance Stephenson,,LAL,-6,0,True,2,RA,C
0021800670,Terrance Ferguson,,OKC,231,102,False,3,Top3,RC
0021800670,Hamidou Diallo,,OKC,0,-6,False,2,RA,C
0021800670,Michael Beasley,,LAL,76,67,False,2,ShortMid,R
0021800670,Ivica Zubac,Michael Beasley,LAL,1,32,True,2,RA,C
0021800670,Patrick Patterson,Russell Westbrook,OKC,-204,160,True,3,Top3,LC
0021800670,Patrick Patterson,Hamidou Diallo,OKC,226,-13,True,3,Corner3,R
0021800670,Michael Beasley,,LAL,25,11,False,2,RA,C
0021800670,Ivica Zubac,,LAL,0,-6,False,2,RA,C
0021800670,Ivica Zubac,,LAL,0,-6,True,2,RA,C
0021800670,Russell Westbrook,,OKC,215,121,False,3,Top3,RC
0021800670,Svi Mykhailiuk,,LAL,137,234,False,3,Top3,RC
0021800670,Jerami Grant,,OKC,-104,221,False,3,Top3,LC
0021800670,Russell Westbrook,,OKC,-76,152,False,2,Mid,LC
0021800670,Moritz Wagner,,LAL,23,-2,False,2,RA,C
0021800670,Ivica Zubac,Svi Mykhailiuk,LAL,-9,85,True,2,ShortMid,C
0021800670,Russell Westbrook,,OKC,-149,204,False,3,Top3,LC
0021800670,Lance Stephenson,,LAL,-79,151,False,2,Mid,LC
0021800670,Hamidou Diallo,,OKC,26,38,False,2,ShortMid,C
0021800670,Moritz Wagner,,LAL,-5,55,False,2,ShortMid,C
0021800670,Svi Mykhailiuk,Lonzo Ball,LAL,153,208,True,3,Top3,RC
0021800670,Steven Adams,Paul George,OKC,-5,13,True,2,RA,C
0021800670,Kyle Kuzma,,LAL,-154,200,False,3,Top3,LC
0021800670,Svi Mykhailiuk,,LAL,89,43,False,2,Mid,R
0021800670,Russell Westbrook,,OKC,-6,7,False,2,RA,C
0021800670,Russell Westbrook,Paul George,OKC,-224,-6,True,3,Corner3,L
0021800670,Kyle Kuzma,,LAL,145,253,True,3,Top3,RC
0021800670,Kyle Kuzma,Lonzo Ball,LAL,-86,236,True,3,Top3,LC
0021800670,Russell Westbrook,,OKC,-45,246,False,3,Top3,C
0021800670,Kyle Kuzma,,LAL,-216,104,False,3,Top3,LC
0021800670,Jerami Grant,,OKC,223,-3,False,3,Corner3,R
0021800670,Jerami Grant,Russell Westbrook,OKC,-2,15,True,2,RA,C
0021800670,Ivica Zubac,Kyle Kuzma,LAL,0,6,True,2,RA,C
0021800670,Jerami Grant,,OKC,-5,22,False,2,RA,C
0021800670,Russell Westbrook,,OKC,32,20,False,2,RA,C
0021800670,Ivica Zubac,Lonzo Ball,LAL,-25,6,True,2,RA,C
0021800670,Kyle Kuzma,Josh Hart,LAL,40,71,True,2,ShortMid,C
0021800670,Russell Westbrook,,OKC,-25,32,False,2,ShortMid,C
0021800670,Lonzo Ball,,LAL,92,248,False,3,Top3,RC
0021800670,Russell Westbrook,,OKC,-8,25,False,2,RA,C
0021800670,Kyle Kuzma,,LAL,1,27,False,2,RA,C
0021800670,Kyle Kuzma,,LAL,-230,24,False,3,Corner3,L
0021800670,Terrance Ferguson,,OKC,-234,41,False,3,Corner3,L
0021800670,Kyle Kuzma,,LAL,45,17,False,2,ShortMid,C
0021800670,Paul George,,OKC,3,267,False,3,Top3,C
0021800670,Brandon Ingram,,LAL,49,6,False,2,ShortMid,C
0021800670,Terrance Ferguson,,OKC,-166,193,False,3,Top3,LC
0021800670,Lonzo Ball,,LAL,11,15,False,2,RA,C
0021800670,Lonzo Ball,Josh Hart,LAL,-92,252,True,3,Top3,LC
0021800670,Jerami Grant,,OKC,154,197,False,3,Top3,RC
0021800670,Lonzo Ball,,LAL,-232,113,False,3,Top3,LC
0021800670,Ivica Zubac,,LAL,-8,38,False,2,RA,C
0021800670,Russell Westbrook,,OKC,-166,215,False,3,Top3,LC
0021800670,Lonzo Ball,Kyle Kuzma,LAL,-14,25,True,2,RA,C
0021800670,Paul George,,OKC,-13,33,False,2,RA,C
0021800670,Terrance Ferguson,Jerami Grant,OKC,226,48,True,3,Corner3,R
0021800670,Kyle Kuzma,,LAL,103,109,True,2,Mid,R
0021800670,Terrance Ferguson,,OKC,-192,157,False,3,Top3,LC
0021800670,Ivica Zubac,Lonzo Ball,LAL,-5,13,True,2,RA,C
0021800670,Paul George,,OKC,-1,273,False,3,Top3,C
0021800670,Jerami Grant,Russell Westbrook,OKC,-89,256,True,3,Top3,LC
0021800670,Brandon Ingram,Ivica Zubac,LAL,12,14,True,2,RA,C
0021800670,Paul George,,OKC,135,206,False,3,Top3,RC
0021800670,Terrance Ferguson,,OKC,-219,142,False,3,Top3,LC
0021800670,Paul George,,OKC,-158,202,False,3,Top3,LC
0021800667,Joel Embiid,,PHI,150,273,False,3,Top3,RC
0021800667,Darren Collison,,IND,-6,4,False,2,RA,C
0021800667,JJ Redick,,PHI,201,183,False,3,Top3,RC
0021800667,Myles Turner,Victor Oladipo,IND,81,253,True,3,Top3,C
0021800667,Joel Embiid,,PHI,-124,68,False,2,Mid,L
0021800667,Bojan Bogdanovic,,IND,-210,147,False,3,Top3,LC
0021800667,Ben Simmons,,PHI,-2,10,False,2,RA,C
0021800667,Thaddeus Young,,IND,-5,22,True,2,RA,C
0021800667,Jimmy Butler,,PHI,-4,137,False,2,ShortMid,C
0021800667,Victor Oladipo,,IND,4,-17,False,2,RA,C
0021800667,Darren Collison,,IND,-175,188,False,3,Top3,LC
0021800667,Wilson Chandler,Joel Embiid,PHI,-43,258,True,3,Top3,C
0021800667,Victor Oladipo,,IND,5,34,False,2,RA,C
0021800667,Victor Oladipo,,IND,-2,64,False,2,ShortMid,C
0021800667,Ben Simmons,,PHI,-3,10,False,2,RA,C
0021800667,Wilson Chandler,,PHI,0,-6,True,2,RA,C
0021800667,Darren Collison,,IND,3,2,True,2,RA,C
0021800667,Jimmy Butler,Joel Embiid,PHI,-106,243,True,3,Top3,LC
0021800667,Darren Collison,Bojan Bogdanovic,IND,0,-1,True,2,RA,C
0021800667,Joel Embiid,,PHI,12,268,False,3,Top3,C
0021800667,Victor Oladipo,,IND,-160,137,False,2,Mid,LC
0021800667,Jimmy Butler,Ben Simmons,PHI,0,10,True,2,RA,C
0021800667,Thaddeus Young,Darren Collison,IND,-49,29,True,2,ShortMid,C
0021800667,Jonah Bolden,Jimmy Butler,PHI,-149,205,True,3,Top3,LC
0021800667,Jonah Bolden,,PHI,-231,-13,False,3,Corner3,L
0021800667,Bojan Bogdanovic,Victor Oladipo,IND,-209,163,True,3,Top3,LC
0021800667,Jimmy Butler,Landry Shamet,PHI,9,5,True,2,RA,C
0021800667,Thaddeus Young,,IND,-22,41,False,2,ShortMid,C
0021800667,Myles Turner,,IND,0,-6,False,2,RA,C
0021800667,Landry Shamet,Ben Simmons,PHI,-209,137,True,3,Top3,LC
0021800667,Victor Oladipo,,IND,2,2,False,2,RA,C
0021800667,Thaddeus Young,,IND,0,-6,False,2,RA,C
0021800667,Thaddeus Young,,IND,-5,25,True,2,RA,C
0021800667,Landry Shamet,,PHI,-156,213,False,3,Top3,LC
0021800667,T.J. McConnell,JJ Redick,PHI,66,94,True,2,ShortMid,R
0021800667,Victor Oladipo,,IND,-201,191,False,3,Top3,LC
0021800667,JJ Redick,,PHI,-10,17,False,2,RA,C
0021800667,JJ Redick,,PHI,116,234,False,3,Top3,RC
0021800667,Domantas Sabonis,,IND,-8,10,False,2,RA,C
0021800667,Wilson Chandler,,PHI,230,16,False,3,Corner3,R
0021800667,Darren Collison,,IND,-84,167,False,2,Mid,LC
0021800667,JJ Redick,,PHI,11,200,False,2,Mid,C
0021800667,Domantas Sabonis,,IND,-19,16,False,2,RA,C
0021800667,Victor Oladipo,,IND,0,-6,False,2,RA,C
0021800667,Wilson Chandler,T.J. McConnell,PHI,2,10,True,2,RA,C
0021800667,Cory Joseph,Domantas Sabonis,IND,8,88,True,2,ShortMid,C
0021800667,Joel Embiid,JJ Redick,PHI,-10,11,True,2,RA,C
0021800667,Domantas Sabonis,Victor Oladipo,IND,-2,7,True,2,RA,C
0021800667,JJ Redick,Joel Embiid,PHI,-150,115,True,2,Mid,LC
0021800667,Darren Collison,,IND,-13,25,False,2,RA,C
0021800667,Joel Embiid,,PHI,-5,16,False,2,RA,C
0021800667,Tyreke Evans,Cory Joseph,IND,-1,8,True,2,RA,C
0021800667,Cory Joseph,,IND,-14,195,True,2,Mid,C
0021800667,Mike Muscala,Jimmy Butler,PHI,-140,216,True,3,Top3,LC
0021800667,Cory Joseph,,IND,20,47,False,2,ShortMid,C
0021800667,Landry Shamet,,PHI,0,14,False,2,RA,C
0021800667,Tyreke Evans,Domantas Sabonis,IND,-2,269,True,3,Top3,C
0021800667,T.J. McConnell,,PHI,19,124,False,2,ShortMid,C
0021800667,Doug McDermott,,IND,-239,7,False,3,Corner3,L
0021800667,Mike Muscala,,PHI,119,89,False,2,Mid,R
0021800667,Tyreke Evans,,IND,75,264,False,3,Top3,C
0021800667,Joel Embiid,,PHI,-16,262,False,3,Top3,C
0021800667,T.J. McConnell,,PHI,-46,80,False,2,ShortMid,C
0021800667,Tyreke Evans,,IND,11,34,False,2,RA,C
0021800667,Tyreke Evans,,IND,-9,5,True,2,RA,C
0021800667,Joel Embiid,Jimmy Butler,PHI,1,69,True,2,ShortMid,C
0021800667,Domantas Sabonis,,IND,-57,6,False,2,ShortMid,C
0021800667,T.J. McConnell,,PHI,3,20,True,2,RA,C
0021800667,Doug McDermott,,IND,-235,-13,False,3,Corner3,L
0021800667,Domantas Sabonis,,IND,-157,7,True,2,Mid,L
0021800667,Wilson Chandler,,PHI,186,232,False,3,Top3,RC
0021800667,Bojan Bogdanovic,,IND,15,2,False,2,RA,C
0021800667,Jimmy Butler,,PHI,204,178,False,3,Top3,RC
0021800667,Tyreke Evans,,IND,-16,220,False,2,Mid,C
0021800667,JJ Redick,Wilson Chandler,PHI,-222,-20,True,3,Corner3,L
0021800667,Thaddeus Young,Cory Joseph,IND,-11,49,True,2,ShortMid,C
0021800667,Jimmy Butler,Ben Simmons,PHI,-6,13,True,2,RA,C
0021800667,Tyreke Evans,Cory Joseph,IND,4,2,True,2,RA,C
0021800667,Jimmy Butler,,PHI,172,124,False,2,Mid,R
0021800667,Tyreke Evans,,IND,-239,29,False,3,Corner3,L
0021800667,Jimmy Butler,Wilson Chandler,PHI,-2,9,True,2,RA,C
0021800667,Bojan Bogdanovic,,IND,-230,15,False,3,Corner3,L
0021800667,Joel Embiid,Ben Simmons,PHI,17,264,True,3,Top3,C
0021800667,Victor Oladipo,Cory Joseph,IND,-18,257,True,3,Top3,C
0021800667,Darren Collison,,IND,-9,-16,False,2,RA,C
0021800667,Wilson Chandler,Joel Embiid,PHI,62,267,True,3,Top3,C
0021800667,Victor Oladipo,Darren Collison,IND,-112,247,True,3,Top3,LC
0021800667,Joel Embiid,JJ Redick,PHI,6,8,True,2,RA,C
0021800667,Victor Oladipo,,IND,-177,233,False,3,Top3,LC
0021800667,Joel Embiid,,PHI,54,257,False,3,Top3,C
0021800667,Victor Oladipo,,IND,15,1,False,2,RA,C
0021800667,Bojan Bogdanovic,,IND,200,165,False,3,Top3,RC
0021800667,Ben Simmons,,PHI,14,17,False,2,RA,C
0021800667,Thaddeus Young,Darren Collison,IND,3,6,True,2,RA,C
0021800667,JJ Redick,Joel Embiid,PHI,-59,263,True,3,Top3,C
0021800667,Joel Embiid,,PHI,208,587,False,3,Heave,BC
0021800667,Darren Collison,,IND,-8,201,False,2,Mid,C
0021800667,JJ Redick,,PHI,128,251,False,3,Top3,RC
0021800667,Victor Oladipo,Thaddeus Young,IND,199,199,True,3,Top3,RC
0021800667,Jimmy Butler,,PHI,75,167,False,2,Mid,RC
0021800667,Ben Simmons,,PHI,14,70,False,2,ShortMid,C
0021800667,Victor Oladipo,,IND,-15,161,False,2,Mid,C
0021800667,Wilson Chandler,,PHI,238,31,False,3,Corner3,R
0021800667,Thaddeus Young,,IND,3,27,False,2,RA,C
0021800667,Thaddeus Young,,IND,22,51,False,2,ShortMid,C
0021800667,Bojan Bogdanovic,Darren Collison,IND,-4,31,True,2,RA,C
0021800667,JJ Redick,Joel Embiid,PHI,29,283,True,3,Top3,C
0021800667,Bojan Bogdanovic,,IND,181,247,False,3,Top3,RC
0021800667,Joel Embiid,Jimmy Butler,PHI,13,7,True,2,RA,C
0021800667,Thaddeus Young,,IND,8,30,False,2,RA,C
0021800667,Myles Turner,,IND,0,-6,False,2,RA,C
0021800667,Joel Embiid,,PHI,-35,41,False,2,ShortMid,C
0021800667,Joel Embiid,,PHI,-35,10,False,2,RA,C
0021800667,JJ Redick,Joel Embiid,PHI,-179,246,True,3,Top3,LC
0021800667,Darren Collison,,IND,8,17,True,2,RA,C
0021800667,Thaddeus Young,Victor Oladipo,IND,-10,104,True,2,ShortMid,C
0021800667,Joel Embiid,Ben Simmons,PHI,5,5,True,2,RA,C
0021800667,Thaddeus Young,Victor Oladipo,IND,23,267,True,3,Top3,C
0021800667,Joel Embiid,,PHI,-71,8,False,2,ShortMid,C
0021800667,Jimmy Butler,,PHI,-2,2,True,2,RA,C
0021800667,Thaddeus Young,Victor Oladipo,IND,231,46,True,3,Corner3,R
0021800667,Ben Simmons,Jimmy Butler,PHI,97,-5,True,2,Mid,R
0021800667,Victor Oladipo,,IND,170,231,False,3,Top3,RC
0021800667,Bojan Bogdanovic,Darren Collison,IND,2,20,True,2,RA,C
0021800667,Jimmy Butler,,PHI,15,8,True,2,RA,C
0021800667,Jimmy Butler,T.J. McConnell,PHI,4,0,True,2,RA,C
0021800667,Victor Oladipo,,IND,18,120,False,2,ShortMid,C
0021800667,Darren Collison,,IND,3,15,False,2,RA,C
0021800667,Thaddeus Young,,IND,28,36,True,2,ShortMid,C
0021800667,Landry Shamet,,PHI,112,13,False,2,Mid,R
0021800667,T.J. McConnell,,PHI,-11,64,False,2,ShortMid,C
0021800667,Ben Simmons,,PHI,0,-6,False,2,RA,C
0021800667,Mike Muscala,T.J. McConnell,PHI,2,-6,True,2,RA,C
0021800667,Myles Turner,,IND,171,200,False,3,Top3,RC
0021800667,Victor Oladipo,,IND,109,152,False,2,Mid,RC
0021800667,Victor Oladipo,,IND,7,17,True,2,RA,C
0021800667,Joel Embiid,JJ Redick,PHI,2,7,True,2,RA,C
0021800667,Domantas Sabonis,,IND,9,163,False,2,Mid,C
0021800667,JJ Redick,Joel Embiid,PHI,-35,273,True,3,Top3,C
0021800667,Tyreke Evans,,IND,234,15,False,3,Corner3,R
0021800667,T.J. McConnell,,PHI,18,11,True,2,RA,C
0021800667,Cory Joseph,,IND,-168,278,False,3,Top3,LC
0021800667,Joel Embiid,JJ Redick,PHI,-6,20,True,2,RA,C
0021800667,JJ Redick,T.J. McConnell,PHI,-206,178,True,3,Top3,LC
0021800667,Cory Joseph,,IND,109,26,True,2,Mid,R
0021800667,Tyreke Evans,,IND,11,21,False,2,RA,C
0021800667,Domantas Sabonis,,IND,0,-6,True,2,RA,C
0021800667,Wilson Chandler,,PHI,-7,92,False,2,ShortMid,C
0021800667,Tyreke Evans,,IND,119,173,False,2,Mid,RC
0021800667,Doug McDermott,Cory Joseph,IND,12,10,True,2,RA,C
0021800667,Bojan Bogdanovic,,IND,6,25,False,2,RA,C
0021800667,Tyreke Evans,,IND,40,59,False,2,ShortMid,C
0021800667,Wilson Chandler,,PHI,-197,191,False,3,Top3,LC
0021800667,Tyreke Evans,,IND,17,61,True,2,ShortMid,C
0021800667,Tyreke Evans,Cory Joseph,IND,13,9,True,2,RA,C
0021800667,Joel Embiid,Ben Simmons,PHI,-32,264,True,3,Top3,C
0021800667,Doug McDermott,,IND,32,274,False,3,Top3,C
0021800667,Mike Muscala,Ben Simmons,PHI,-235,4,True,3,Corner3,L
0021800667,Thaddeus Young,,IND,9,55,False,2,ShortMid,C
0021800667,Mike Muscala,,PHI,-232,6,False,3,Corner3,L
0021800667,Cory Joseph,,IND,112,25,True,2,Mid,R
0021800667,Mike Muscala,Jimmy Butler,PHI,-236,2,True,3,Corner3,L
0021800667,Victor Oladipo,,IND,-57,173,True,2,Mid,LC
0021800667,Jimmy Butler,,PHI,179,16,False,2,Mid,R
0021800667,Ben Simmons,,PHI,4,7,True,2,RA,C
0021800667,Victor Oladipo,,IND,25,3,False,2,RA,C
0021800667,Jimmy Butler,,PHI,27,16,False,2,RA,C
0021800667,Bojan Bogdanovic,,IND,-52,267,False,3,Top3,C
0021800667,Jimmy Butler,,PHI,-72,106,True,2,ShortMid,L
0021800667,Thaddeus Young,,IND,76,42,True,2,ShortMid,R
0021800667,Ben Simmons,Jimmy Butler,PHI,41,-1,True,2,ShortMid,C
0021800667,Victor Oladipo,,IND,155,146,True,2,Mid,RC
0021800667,Jimmy Butler,Ben Simmons,PHI,11,199,True,2,Mid,C
0021800667,Thaddeus Young,Victor Oladipo,IND,-93,247,True,3,Top3,LC
0021800667,Jimmy Butler,,PHI,11,16,False,2,RA,C
0021800667,Ben Simmons,Jimmy Butler,PHI,-1,5,True,2,RA,C
0021800667,Myles Turner,,IND,106,169,False,2,Mid,RC
0021800667,Ben Simmons,,PHI,-3,15,True,2,RA,C
0021800667,Bojan Bogdanovic,,IND,232,14,False,3,Corner3,R
0021800667,Aaron Holiday,,IND,45,260,False,3,Top3,C
0021800667,Landry Shamet,T.J. McConnell,PHI,-160,222,True,3,Top3,LC
0021800667,TJ Leaf,Aaron Holiday,IND,-4,16,True,2,RA,C
0021800667,Jonah Bolden,Furkan Korkmaz,PHI,-221,127,True,3,Top3,LC
0021800667,Aaron Holiday,,IND,159,250,False,3,Top3,RC
0021800666,Jeremy Lamb,Kemba Walker,CHA,161,200,True,3,Top3,RC
0021800666,Iman Shumpert,De'Aaron Fox,SAC,-144,111,True,2,Mid,LC
0021800666,Jeremy Lamb,,CHA,223,32,False,3,Corner3,R
0021800666,Iman Shumpert,,SAC,-225,20,False,3,Corner3,L
0021800666,Buddy Hield,De'Aaron Fox,SAC,110,215,True,3,Top3,RC
0021800666,Kemba Walker,,CHA,0,26,False,2,RA,C
0021800666,Willie Cauley-Stein,Nemanja Bjelica,SAC,-11,15,True,2,RA,C
0021800666,Nicolas Batum,,CHA,135,34,False,2,Mid,R
0021800666,Jeremy Lamb,,CHA,-78,258,False,3,Top3,C
0021800666,Buddy Hield,,SAC,54,83,False,2,ShortMid,R
0021800666,Kemba Walker,,CHA,-56,248,False,3,Top3,C
0021800666,Buddy Hield,De'Aaron Fox,SAC,239,29,True,3,Corner3,R
0021800666,Buddy Hield,De'Aaron Fox,SAC,161,194,True,3,Top3,RC
0021800666,Buddy Hield,,SAC,51,77,False,2,ShortMid,R
0021800666,De'Aaron Fox,Buddy Hield,SAC,-22,198,True,2,Mid,C
0021800666,Jeremy Lamb,,CHA,24,58,False,2,ShortMid,C
0021800666,Buddy Hield,,SAC,11,21,False,2,RA,C
0021800666,Nemanja Bjelica,,SAC,-8,45,False,2,ShortMid,C
0021800666,De'Aaron Fox,,SAC,-81,239,False,3,Top3,LC
0021800666,Kemba Walker,,CHA,15,8,True,2,RA,C
0021800666,Iman Shumpert,,SAC,154,47,False,2,Mid,R
0021800666,Kemba Walker,,CHA,-47,253,True,3,Top3,C
0021800666,Iman Shumpert,Willie Cauley-Stein,SAC,133,153,True,2,Mid,RC
0021800666,Kemba Walker,,CHA,-144,214,False,3,Top3,LC
0021800666,Iman Shumpert,,SAC,111,180,False,2,Mid,RC
0021800666,Nicolas Batum,,CHA,-7,80,False,2,ShortMid,C
0021800666,Marvin Bagley III,,SAC,58,37,False,2,ShortMid,C
0021800666,Michael Kidd-Gilchrist,,CHA,-6,15,True,2,RA,C
0021800666,Yogi Ferrell,,SAC,-68,241,False,3,Top3,C
0021800666,Michael Kidd-Gilchrist,,CHA,15,16,True,2,RA,C
0021800666,Bogdan Bogdanovic,,SAC,-78,188,True,2,Mid,LC
0021800666,Miles Bridges,Tony Parker,CHA,2,16,True,2,RA,C
0021800666,Marvin Bagley III,Bogdan Bogdanovic,SAC,12,19,True,2,RA,C
0021800666,Devonte' Graham,,CHA,147,217,False,3,Top3,RC
0021800666,Willy Hernangomez,,CHA,-6,21,False,2,RA,C
0021800666,Marvin Bagley III,Bogdan Bogdanovic,SAC,-95,98,True,2,Mid,L
0021800666,Devonte' Graham,,CHA,-40,265,False,3,Top3,C
0021800666,Yogi Ferrell,,SAC,-67,148,False,2,Mid,LC
0021800666,Willy Hernangomez,Tony Parker,CHA,3,258,True,3,Top3,C
0021800666,Bogdan Bogdanovic,Harry Giles III,SAC,18,14,True,2,RA,C
0021800666,Tony Parker,,CHA,-20,17,False,2,RA,C
0021800666,Willy Hernangomez,,CHA,-6,8,True,2,RA,C
0021800666,Yogi Ferrell,,SAC,110,222,False,3,Top3,RC
0021800666,Michael Kidd-Gilchrist,,CHA,152,206,False,3,Top3,RC
0021800666,Yogi Ferrell,Marvin Bagley III,SAC,153,210,True,3,Top3,RC
0021800666,Miles Bridges,,CHA,69,28,True,2,ShortMid,C
0021800666,Bogdan Bogdanovic,Harry Giles III,SAC,229,30,True,3,Corner3,R
0021800666,Devonte' Graham,,CHA,-229,21,False,3,Corner3,L
0021800666,Bogdan Bogdanovic,Justin Jackson,SAC,18,10,True,2,RA,C
0021800666,Tony Parker,,CHA,-5,15,True,2,RA,C
0021800666,Bogdan Bogdanovic,,SAC,-18,4,True,2,RA,C
0021800666,Tony Parker,,CHA,10,34,False,2,RA,C
0021800666,Justin Jackson,Yogi Ferrell,SAC,-131,89,True,2,Mid,L
0021800666,Michael Kidd-Gilchrist,Tony Parker,CHA,9,31,True,2,RA,C
0021800666,Tony Parker,,CHA,11,10,True,2,RA,C
0021800666,Malik Monk,Tony Parker,CHA,-3,18,True,2,RA,C
0021800666,Harry Giles III,,SAC,-95,169,False,2,Mid,LC
0021800666,Tony Parker,,CHA,-136,128,False,2,Mid,LC
0021800666,Marvin Williams,,CHA,226,2,False,3,Corner3,R
0021800666,Marvin Bagley III,De'Aaron Fox,SAC,237,16,True,3,Corner3,R
0021800666,Tony Parker,,CHA,4,10,True,2,RA,C
0021800666,Harry Giles III,,SAC,-119,50,False,2,Mid,L
0021800666,Willy Hernangomez,Tony Parker,CHA,6,17,True,2,RA,C
0021800666,De'Aaron Fox,,SAC,-5,124,False,2,ShortMid,C
0021800666,Jeremy Lamb,,CHA,8,20,False,2,RA,C
0021800666,Kemba Walker,,CHA,-41,173,False,2,Mid,C
0021800666,De'Aaron Fox,,SAC,-182,173,False,3,Top3,LC
0021800666,Jeremy Lamb,Nicolas Batum,CHA,-229,43,True,3,Corner3,L
0021800666,Marvin Bagley III,,SAC,18,11,False,2,RA,C
0021800666,Marvin Bagley III,,SAC,22,-5,False,2,RA,C
0021800666,Marvin Bagley III,,SAC,-4,5,True,2,RA,C
0021800666,Willy Hernangomez,,CHA,-6,21,False,2,RA,C
0021800666,Willie Cauley-Stein,,SAC,2,9,True,2,RA,C
0021800666,Willy Hernangomez,,CHA,-61,21,False,2,ShortMid,C
0021800666,Iman Shumpert,,SAC,-225,25,False,3,Corner3,L
0021800666,Michael Kidd-Gilchrist,Jeremy Lamb,CHA,8,6,True,2,RA,C
0021800666,Jeremy Lamb,Michael Kidd-Gilchrist,CHA,8,8,True,2,RA,C
0021800666,Nemanja Bjelica,,SAC,93,251,False,3,Top3,RC
0021800666,Jeremy Lamb,Kemba Walker,CHA,-13,11,True,2,RA,C
0021800666,Buddy Hield,Nemanja Bjelica,SAC,-8,268,True,3,Top3,C
0021800666,Marvin Williams,Kemba Walker,CHA,-110,223,True,3,Top3,LC
0021800666,Kemba Walker,,CHA,3,13,True,2,RA,C
0021800666,Buddy Hield,,SAC,237,6,False,3,Corner3,R
0021800666,Nicolas Batum,Marvin Williams,CHA,-2,18,True,2,RA,C
0021800666,Buddy Hield,,SAC,-106,109,False,2,Mid,L
0021800666,Iman Shumpert,,SAC,154,203,False,3,Top3,RC
0021800666,Kemba Walker,,CHA,-130,55,True,2,Mid,L
0021800666,Willie Cauley-Stein,Nemanja Bjelica,SAC,2,12,True,2,RA,C
0021800666,Kemba Walker,,CHA,85,167,True,2,Mid,RC
0021800666,Buddy Hield,,SAC,-234,99,False,3,Top3,LC
0021800666,Kemba Walker,,CHA,-3,268,True,3,Top3,C
0021800666,Willie Cauley-Stein,De'Aaron Fox,SAC,-8,16,True,2,RA,C
0021800666,Nemanja Bjelica,,SAC,133,212,False,3,Top3,RC
0021800666,Nemanja Bjelica,Willie Cauley-Stein,SAC,11,8,True,2,RA,C
0021800666,Jeremy Lamb,,CHA,-55,241,False,3,Top3,C
0021800666,Buddy Hield,,SAC,228,16,False,3,Corner3,R
0021800666,Kemba Walker,,CHA,214,143,False,3,Top3,RC
0021800666,Marvin Williams,Nicolas Batum,CHA,-18,250,True,3,Top3,C
0021800666,Iman Shumpert,Nemanja Bjelica,SAC,-226,46,True,3,Corner3,L
0021800666,Marvin Williams,,CHA,232,36,False,3,Corner3,R
0021800666,De'Aaron Fox,,SAC,-109,167,False,2,Mid,LC
0021800666,Willie Cauley-Stein,,SAC,4,8,False,2,RA,C
0021800666,Nicolas Batum,,CHA,225,98,False,3,Top3,RC
0021800666,Iman Shumpert,,SAC,151,201,False,3,Top3,RC
0021800666,Kemba Walker,,CHA,-178,174,False,3,Top3,LC
0021800666,De'Aaron Fox,,SAC,2,13,True,2,RA,C
0021800666,Kemba Walker,Nicolas Batum,CHA,-97,247,True,3,Top3,LC
0021800666,Buddy Hield,Willie Cauley-Stein,SAC,-147,218,True,3,Top3,LC
0021800666,Buddy Hield,,SAC,-93,112,True,2,Mid,L
0021800666,Kemba Walker,,CHA,-15,78,False,2,ShortMid,C
0021800666,Buddy Hield,,SAC,-66,253,False,3,Top3,C
0021800666,Jeremy Lamb,,CHA,-2,16,False,2,RA,C
0021800666,Nemanja Bjelica,,SAC,163,36,False,2,Mid,R
0021800666,Miles Bridges,,CHA,-228,-7,False,3,Corner3,L
0021800666,Jeremy Lamb,,CHA,-111,72,False,2,Mid,L
0021800666,De'Aaron Fox,,SAC,9,37,False,2,RA,C
0021800666,Kemba Walker,,CHA,-22,253,False,3,Top3,C
0021800666,Bogdan Bogdanovic,,SAC,-25,78,False,2,ShortMid,C
0021800666,Willy Hernangomez,,CHA,5,37,False,2,RA,C
0021800666,Bogdan Bogdanovic,,SAC,-232,26,False,3,Corner3,L
0021800666,Jeremy Lamb,,CHA,234,25,False,3,Corner3,R
0021800666,Michael Kidd-Gilchrist,,CHA,231,29,False,3,Corner3,R
0021800666,Miles Bridges,,CHA,0,-6,True,2,RA,C
0021800666,Bogdan Bogdanovic,De'Aaron Fox,SAC,-14,15,True,2,RA,C
0021800666,Tony Parker,,CHA,-3,22,False,2,RA,C
0021800666,Tony Parker,Marvin Williams,CHA,-8,-4,True,2,RA,C
0021800666,Miles Bridges,,CHA,-19,11,False,2,RA,C
0021800666,Nicolas Batum,,CHA,-223,66,False,3,Corner3,L
0021800666,Harry Giles III,,SAC,-66,58,False,2,ShortMid,L
0021800666,Yogi Ferrell,Harry Giles III,SAC,112,120,True,2,Mid,RC
0021800666,Tony Parker,,CHA,-176,473,False,3,Heave,BC
0021800666,Marvin Bagley III,,SAC,3,25,False,2,RA,C
0021800666,Marvin Bagley III,,SAC,0,-6,True,2,RA,C
0021800666,Michael Kidd-Gilchrist,,CHA,8,11,False,2,RA,C
0021800666,Willy Hernangomez,,CHA,0,-6,True,2,RA,C
0021800666,Justin Jackson,,SAC,44,252,False,3,Top3,C
0021800666,Willy Hernangomez,,CHA,143,214,False,3,Top3,RC
0021800666,Miles Bridges,Malik Monk,CHA,-11,6,True,2,RA,C
0021800666,Bogdan Bogdanovic,,SAC,-81,190,True,2,Mid,LC
0021800666,Miles Bridges,Willy Hernangomez,CHA,3,5,True,2,RA,C
0021800666,Justin Jackson,Yogi Ferrell,SAC,230,8,True,3,Corner3,R
0021800666,Tony Parker,,CHA,5,59,True,2,ShortMid,C
0021800666,Marvin Bagley III,,SAC,-55,265,False,3,Top3,C
0021800666,Miles Bridges,Tony Parker,CHA,229,19,True,3,Corner3,R
0021800666,Bogdan Bogdanovic,,SAC,-41,94,False,2,ShortMid,C
0021800666,Bogdan Bogdanovic,,SAC,0,22,False,2,RA,C
0021800666,Marvin Williams,,CHA,231,25,False,3,Corner3,R
0021800666,Marvin Williams,Kemba Walker,CHA,-226,66,True,3,Corner3,L
0021800666,Bogdan Bogdanovic,Harry Giles III,SAC,-12,10,True,2,RA,C
0021800666,Kemba Walker,,CHA,72,92,False,2,ShortMid,R
0021800666,De'Aaron Fox,,SAC,-27,-5,True,2,RA,C
0021800666,Buddy Hield,Justin Jackson,SAC,4,18,True,2,RA,C
0021800666,Malik Monk,,CHA,-194,155,False,3,Top3,LC
0021800666,Willie Cauley-Stein,,SAC,-5,10,False,2,RA,C
0021800666,Kemba Walker,,CHA,46,256,False,3,Top3,C
0021800666,Buddy Hield,,SAC,182,181,False,3,Top3,RC
0021800666,Buddy Hield,De'Aaron Fox,SAC,43,249,True,3,Top3,C
0021800666,Jeremy Lamb,,CHA,66,243,False,3,Top3,C
0021800666,De'Aaron Fox,,SAC,-24,18,False,2,RA,C
0021800666,Justin Jackson,,SAC,-25,257,False,3,Top3,C
0021800666,Justin Jackson,,SAC,232,39,False,3,Corner3,R
0021800666,Buddy Hield,,SAC,13,17,True,2,RA,C
0021800666,Kemba Walker,,CHA,9,22,False,2,RA,C
0021800666,Kemba Walker,,CHA,65,243,False,3,Top3,C
0021800666,Kemba Walker,,CHA,6,10,True,2,RA,C
0021800666,De'Aaron Fox,Willie Cauley-Stein,SAC,20,42,True,2,ShortMid,C
0021800666,Jeremy Lamb,Kemba Walker,CHA,-58,36,True,2,ShortMid,C
0021800666,Bogdan Bogdanovic,,SAC,-14,16,False,2,RA,C
0021800666,Kemba Walker,,CHA,6,6,True,2,RA,C
0021800666,Ben McLemore,,SAC,230,16,False,3,Corner3,R
0021800666,Miles Bridges,,CHA,14,252,False,3,Top3,C
0021800666,Ben McLemore,,SAC,-197,163,False,3,Top3,LC
0021800666,Malik Monk,Miles Bridges,CHA,133,218,True,3,Top3,RC
0021800666,Ben McLemore,,SAC,-16,11,False,2,RA,C
0021800666,Marvin Bagley III,,SAC,0,-6,True,2,RA,C
0021800669,Bobby Portis,Zach LaVine,CHI,-30,142,True,2,Mid,C
0021800669,Jamal Murray,,DEN,142,176,False,2,Mid,RC
0021800669,Zach LaVine,,CHI,168,26,False,2,Mid,R
0021800669,Nikola Jokic,,DEN,-3,43,False,2,ShortMid,C
0021800669,Torrey Craig,Paul Millsap,DEN,161,198,True,3,Top3,RC
0021800669,Lauri Markkanen,,CHI,-117,248,False,3,Top3,LC
0021800669,Nikola Jokic,,DEN,3,6,True,2,RA,C
0021800669,Zach LaVine,,CHI,-169,193,False,3,Top3,LC
0021800669,Chandler Hutchison,Kris Dunn,CHI,25,11,True,2,RA,C
0021800669,Jamal Murray,,DEN,-124,226,False,3,Top3,LC
0021800669,Lauri Markkanen,Zach LaVine,CHI,135,221,True,3,Top3,RC
0021800669,Torrey Craig,Nikola Jokic,DEN,225,111,True,3,Top3,RC
0021800669,Lauri Markkanen,,CHI,54,20,True,2,ShortMid,C
0021800669,Chandler Hutchison,Bobby Portis,CHI,-51,43,True,2,ShortMid,C
0021800669,Jamal Murray,,DEN,-26,252,False,3,Top3,C
0021800669,Paul Millsap,,DEN,0,-6,True,2,RA,C
0021800669,Bobby Portis,,CHI,-76,167,False,2,Mid,LC
0021800669,Nikola Jokic,Jamal Murray,DEN,1,37,True,2,RA,C
0021800669,Bobby Portis,,CHI,74,153,False,2,Mid,RC
0021800669,Malik Beasley,Nikola Jokic,DEN,20,35,True,2,ShortMid,C
0021800669,Lauri Markkanen,,CHI,-1,262,False,3,Top3,C
0021800669,Paul Millsap,Jamal Murray,DEN,-22,16,True,2,RA,C
0021800669,Chandler Hutchison,,CHI,33,13,False,2,RA,C
0021800669,Bobby Portis,,CHI,0,-6,False,2,RA,C
0021800669,Wayne Selden,,CHI,58,244,False,3,Top3,C
0021800669,Torrey Craig,Nikola Jokic,DEN,-192,167,True,3,Top3,LC
0021800669,Lauri Markkanen,Wayne Selden,CHI,-3,55,True,2,ShortMid,C
0021800669,Lauri Markkanen,Ryan Arcidiacono,CHI,-78,256,True,3,Top3,C
0021800669,Lauri Markkanen,,CHI,-79,117,True,2,ShortMid,L
0021800669,Malik Beasley,Nikola Jokic,DEN,-128,218,True,3,Top3,LC
0021800669,Lauri Markkanen,Ryan Arcidiacono,CHI,140,222,True,3,Top3,RC
0021800669,Lauri Markkanen,,CHI,-104,7,False,2,Mid,L
0021800669,Lauri Markkanen,,CHI,-235,23,False,3,Corner3,L
0021800669,Nikola Jokic,,DEN,-87,242,False,3,Top3,LC
0021800669,Robin Lopez,Wayne Selden,CHI,-18,180,True,2,Mid,C
0021800669,Nikola Jokic,,DEN,-5,37,True,2,RA,C
0021800669,Wayne Selden,,CHI,-72,142,False,2,Mid,C
0021800669,Robin Lopez,,CHI,-18,50,True,2,ShortMid,C
0021800669,Gary Harris,,DEN,44,252,False,3,Top3,C
0021800669,Monte Morris,,DEN,-122,231,False,3,Top3,LC
0021800669,Gary Harris,,DEN,47,53,True,2,ShortMid,C
0021800669,Jabari Parker,Ryan Arcidiacono,CHI,-230,17,True,3,Corner3,L
0021800669,Monte Morris,,DEN,164,192,False,3,Top3,RC
0021800669,Monte Morris,Gary Harris,DEN,36,57,True,2,ShortMid,C
0021800669,Trey Lyles,Mason Plumlee,DEN,152,218,True,3,Top3,RC
0021800669,Jabari Parker,,CHI,-101,60,True,2,Mid,L
0021800669,Mason Plumlee,Gary Harris,DEN,32,20,True,2,RA,C
0021800669,Ryan Arcidiacono,,CHI,-77,246,False,3,Top3,C
0021800669,Trey Lyles,,DEN,84,26,False,2,Mid,R
0021800669,Trey Lyles,,DEN,-38,20,False,2,ShortMid,C
0021800669,Zach LaVine,,CHI,-27,25,False,2,RA,C
0021800669,Gary Harris,Monte Morris,DEN,-93,232,True,3,Top3,LC
0021800669,Gary Harris,,DEN,-29,27,False,2,RA,C
0021800669,Trey Lyles,,DEN,-120,145,False,2,Mid,LC
0021800669,Robin Lopez,,CHI,-57,47,True,2,ShortMid,C
0021800669,Gary Harris,,DEN,90,66,False,2,Mid,R
0021800669,Jabari Parker,,CHI,-164,34,True,2,Mid,L
0021800669,Mason Plumlee,Juancho Hernangomez,DEN,7,152,True,2,Mid,C
0021800669,Kris Dunn,Wayne Selden,CHI,27,27,True,2,RA,C
0021800669,Monte Morris,,DEN,27,21,True,2,RA,C
0021800669,Zach LaVine,,CHI,-159,36,False,2,Mid,L
0021800669,Trey Lyles,Monte Morris,DEN,-70,17,True,2,ShortMid,C
0021800669,Mason Plumlee,Jamal Murray,DEN,-27,0,True,2,RA,C
0021800669,Kris Dunn,,CHI,0,15,True,2,RA,C
0021800669,Antonio Blakeney,,CHI,-230,16,False,3,Corner3,L
0021800669,Nikola Jokic,,DEN,-48,246,False,3,Top3,C
0021800669,Lauri Markkanen,,CHI,-25,262,False,3,Top3,C
0021800669,Trey Lyles,,DEN,-35,16,False,2,RA,C
0021800669,Zach LaVine,,CHI,-51,22,False,2,ShortMid,C
0021800669,Paul Millsap,Nikola Jokic,DEN,-4,17,True,2,RA,C
0021800669,Bobby Portis,,CHI,-8,4,False,2,RA,C
0021800669,Torrey Craig,,DEN,23,10,False,2,RA,C
0021800669,Bobby Portis,Zach LaVine,CHI,-25,7,True,2,RA,C
0021800669,Nikola Jokic,,DEN,49,32,False,2,ShortMid,C
0021800669,Kris Dunn,,CHI,71,34,False,2,ShortMid,C
0021800669,Nikola Jokic,,DEN,-4,31,True,2,RA,C
0021800669,Nikola Jokic,,DEN,-150,214,False,3,Top3,LC
0021800669,Jamal Murray,,DEN,7,56,False,2,ShortMid,C
0021800669,Lauri Markkanen,,CHI,-43,41,True,2,ShortMid,C
0021800669,Nikola Jokic,,DEN,-4,52,False,2,ShortMid,C
0021800669,Nikola Jokic,,DEN,0,-6,False,2,RA,C
0021800669,Nikola Jokic,,DEN,0,-6,False,2,RA,C
0021800669,Lauri Markkanen,Wayne Selden,CHI,228,-6,True,3,Corner3,R
0021800669,Jamal Murray,Nikola Jokic,DEN,121,220,True,3,Top3,RC
0021800669,Kris Dunn,,CHI,-19,10,False,2,RA,C
0021800669,Paul Millsap,,DEN,-35,16,False,2,RA,C
0021800669,Jamal Murray,,DEN,-81,98,False,2,Mid,L
0021800669,Lauri Markkanen,,CHI,193,16,False,2,Mid,R
0021800669,Wayne Selden,,CHI,-120,157,False,2,Mid,LC
0021800669,Malik Beasley,Jamal Murray,DEN,188,168,True,3,Top3,RC
0021800669,Wayne Selden,,CHI,-36,262,False,3,Top3,C
0021800669,Malik Beasley,,DEN,-51,251,False,3,Top3,C
0021800669,Lauri Markkanen,Bobby Portis,CHI,-48,258,True,3,Top3,C
0021800669,Jamal Murray,Nikola Jokic,DEN,-132,212,True,3,Top3,LC
0021800669,Zach LaVine,,CHI,-203,147,False,3,Top3,LC
0021800669,Nikola Jokic,,DEN,-8,44,False,2,ShortMid,C
0021800669,Nikola Jokic,,DEN,-9,22,True,2,RA,C
0021800669,Zach LaVine,,CHI,24,25,False,2,RA,C
0021800669,Bobby Portis,,CHI,1,15,False,2,RA,C
0021800669,Zach LaVine,,CHI,17,25,False,2,RA,C
0021800669,Bobby Portis,,CHI,7,20,False,2,RA,C
0021800669,Bobby Portis,,CHI,0,-6,False,2,RA,C
0021800669,Nikola Jokic,,DEN,11,25,True,2,RA,C
0021800669,Zach LaVine,Bobby Portis,CHI,24,31,True,2,RA,C
0021800669,Torrey Craig,,DEN,233,7,False,3,Corner3,R
0021800669,Kris Dunn,,CHI,35,24,False,2,ShortMid,C
0021800669,Jamal Murray,,DEN,-92,246,True,3,Top3,LC
0021800669,Zach LaVine,,CHI,50,258,False,3,Top3,C
0021800669,Torrey Craig,,DEN,-54,265,False,3,Top3,C
0021800669,Jamal Murray,,DEN,21,11,False,2,RA,C
0021800669,Lauri Markkanen,,CHI,226,51,False,3,Corner3,R
0021800669,Malik Beasley,Jamal Murray,DEN,25,1,True,2,RA,C
0021800669,Paul Millsap,Nikola Jokic,DEN,228,106,True,3,Top3,RC
0021800669,Bobby Portis,,CHI,-123,219,False,3,Top3,LC
0021800669,Jamal Murray,Malik Beasley,DEN,166,194,True,3,Top3,RC
0021800669,Zach LaVine,,CHI,-9,61,False,2,ShortMid,C
0021800669,Kris Dunn,,CHI,13,38,False,2,ShortMid,C
0021800669,Bobby Portis,,CHI,-3,25,False,2,RA,C
0021800669,Kris Dunn,,CHI,25,15,True,2,RA,C
0021800669,Torrey Craig,Nikola Jokic,DEN,227,2,True,3,Corner3,R
0021800669,Jamal Murray,,DEN,129,115,True,2,Mid,RC
0021800669,Bobby Portis,Kris Dunn,CHI,-44,252,True,3,Top3,C
0021800669,Jamal Murray,Paul Millsap,DEN,-20,258,True,3,Top3,C
0021800669,Kris Dunn,,CHI,46,57,False,2,ShortMid,C
0021800669,Lauri Markkanen,,CHI,0,-6,True,2,RA,C
0021800669,Lauri Markkanen,,CHI,-35,100,False,2,ShortMid,C
0021800669,Nikola Jokic,,DEN,21,13,False,2,RA,C
0021800669,Nikola Jokic,,DEN,-16,21,False,2,RA,C
0021800669,Nikola Jokic,,DEN,11,31,False,2,RA,C
0021800669,Chandler Hutchison,Jabari Parker,CHI,-30,6,True,2,RA,C
0021800669,Paul Millsap,Nikola Jokic,DEN,-139,242,True,3,Top3,LC
0021800669,Chandler Hutchison,,CHI,24,85,True,2,ShortMid,C
0021800669,Jamal Murray,Nikola Jokic,DEN,53,260,True,3,Top3,C
0021800669,Gary Harris,,DEN,49,22,True,2,ShortMid,C
0021800669,Jabari Parker,Ryan Arcidiacono,CHI,229,77,True,3,Corner3,R
0021800669,Jamal Murray,,DEN,-148,220,True,3,Top3,LC
0021800669,Ryan Arcidiacono,,CHI,201,143,False,3,Top3,RC
0021800669,Jamal Murray,,DEN,-104,273,False,3,Top3,LC
0021800669,Chandler Hutchison,,CHI,229,34,False,3,Corner3,R
0021800669,Robin Lopez,,CHI,-57,32,True,2,ShortMid,C
0021800669,Jamal Murray,,DEN,97,253,False,3,Top3,RC
0021800669,Robin Lopez,Zach LaVine,CHI,29,27,True,2,RA,C
0021800669,Jabari Parker,,CHI,-129,11,False,2,Mid,L
0021800669,Trey Lyles,,DEN,42,31,True,2,ShortMid,C
0021800669,Robin Lopez,,CHI,-19,251,False,3,Top3,C
0021800669,Monte Morris,,DEN,-11,262,False,3,Top3,C
0021800669,Robin Lopez,Zach LaVine,CHI,7,11,True,2,RA,C
0021800669,Mason Plumlee,Trey Lyles,DEN,8,44,True,2,ShortMid,C
0021800669,Zach LaVine,,CHI,-31,192,True,2,Mid,C
0021800669,Gary Harris,Monte Morris,DEN,60,253,True,3,Top3,C
0021800669,Jabari Parker,,CHI,110,261,False,3,Top3,RC
0021800669,Juancho Hernangomez,Monte Morris,DEN,-230,44,True,3,Corner3,L
0021800669,Robin Lopez,Jabari Parker,CHI,-14,50,True,2,ShortMid,C
0021800669,Gary Harris,Mason Plumlee,DEN,-67,86,True,2,ShortMid,L
0021800669,Robin Lopez,Zach LaVine,CHI,-5,99,True,2,ShortMid,C
0021800669,Monte Morris,Mason Plumlee,DEN,18,10,True,2,RA,C
0021800669,Robin Lopez,,CHI,-149,6,False,2,Mid,L
0021800669,Jabari Parker,,CHI,13,8,True,2,RA,C
0021800669,Trey Lyles,,DEN,-141,206,False,3,Top3,LC
0021800669,Gary Harris,Mason Plumlee,DEN,-27,83,True,2,ShortMid,C
0021800669,Zach LaVine,Kris Dunn,CHI,-4,9,True,2,RA,C
0021800669,Monte Morris,,DEN,-148,130,False,2,Mid,LC
0021800669,Zach LaVine,,CHI,14,6,False,2,RA,C
0021800669,Gary Harris,,DEN,-27,41,False,2,ShortMid,C
0021800669,Gary Harris,,DEN,0,-6,False,2,RA,C
0021800669,Zach LaVine,Lauri Markkanen,CHI,18,15,True,2,RA,C
0021800669,Malik Beasley,Monte Morris,DEN,-7,55,True,2,ShortMid,C
0021800669,Chandler Hutchison,,CHI,43,40,False,2,ShortMid,C
0021800669,Juancho Hernangomez,Trey Lyles,DEN,2,17,True,2,RA,C
0021800669,Antonio Blakeney,,CHI,-22,145,False,2,Mid,C
0021800669,Malik Beasley,,DEN,32,25,False,2,ShortMid,C
0021800669,Juancho Hernangomez,,DEN,-9,20,True,2,RA,C
0021800669,Chandler Hutchison,,CHI,22,50,True,2,ShortMid,C
0021800669,Trey Lyles,,DEN,36,44,True,2,ShortMid,C
0021800669,Shaquille Harrison,,CHI,32,27,True,2,ShortMid,C
0021800669,Trey Lyles,Brandon Goodwin,DEN,223,27,True,3,Corner3,R
0021800669,Antonio Blakeney,Shaquille Harrison,CHI,226,9,True,3,Corner3,R
0021800669,Tyler Lydon,,DEN,-12,5,False,2,RA,C
0021800669,Cristiano Felicio,Shaquille Harrison,CHI,134,0,True,2,Mid,R
0021800669,Brandon Goodwin,,DEN,118,238,False,3,Top3,RC
0021800669,Tyler Lydon,,DEN,238,-6,False,3,Corner3,R
0021800669,Shaquille Harrison,,CHI,-236,3,False,3,Corner3,L
0021800669,Bobby Portis,,CHI,0,-6,True,2,RA,C
0021800669,Juancho Hernangomez,,DEN,-218,123,False,3,Top3,LC
0021800669,Chandler Hutchison,Bobby Portis,CHI,23,14,True,2,RA,C
0021800669,Tyler Lydon,,DEN,-191,204,False,3,Top3,LC
0021800669,Tyler Lydon,,DEN,-130,222,False,3,Top3,LC
0021800669,Juancho Hernangomez,,DEN,0,-6,True,2,RA,C
0021800669,Antonio Blakeney,Shaquille Harrison,CHI,-225,3,True,3,Corner3,L
