poss_time,dfgm_rim,time,touch,dfga_rim,drebc,cont_fg2a,post_touch,game_id,cont_fg3a,box_outs,sec_ast,drtg,ast,oreb,speed,plus_minus,screen_ast,passes,dreb,recoveries,pace,charges_drawn,tech_fta,orebc,elbow_touch,pot_ast,defl,fg3a,ft2a,player,fg2m,fg2a,team,fg3m,tov,starter,paint_touch,ast_pts,stl,blk,ft1a,ftm,ft_ast,ft3a,ortg,distance
0.9,1.0,1812,34.0,1.0,5.0,2.0,1.0,21800668.0,3.0,0.0,0.0,108.1,4.0,1.0,4.32,5.0,0.0,24.0,4.0,2.0,99.34,0.0,0.0,2.0,1.0,5.0,1.0,4.0,4.0,Mikal Bridges,4.0,4.0,PHX,1.0,0.0,True,1.0,10.0,0.0,1.0,0.0,4.0,0.0,0.0,114.3,7827.84
2.4,3.0,2453,63.0,3.0,7.0,4.0,0.0,21800668.0,1.0,2.0,1.0,116.7,0.0,1.0,4.21,-6.0,0.0,45.0,5.0,2.0,98.62,0.0,0.0,1.0,2.0,1.0,5.0,4.0,0.0,T.J. Warren,4.0,12.0,PHX,1.0,1.0,True,3.0,0.0,2.0,2.0,0.0,0.0,0.0,0.0,109.5,10327.13
1.3,2.0,2109,48.0,5.0,12.0,16.0,4.0,21800668.0,3.0,2.0,0.0,112.7,2.0,7.0,4.0,5.0,6.0,35.0,10.0,2.0,96.96,0.0,0.0,10.0,4.0,1.0,1.0,0.0,4.0,Deandre Ayton,6.0,8.0,PHX,0.0,2.0,True,11.0,4.0,2.0,2.0,0.0,3.0,0.0,0.0,119.7,8436.0
5.6,1.0,2111,80.0,1.0,4.0,6.0,1.0,21800668.0,2.0,1.0,1.0,115.3,8.0,0.0,4.14,2.0,0.0,49.0,2.0,0.0,98.91,0.0,0.0,1.0,1.0,18.0,3.0,9.0,6.0,Devin Booker,6.0,12.0,PHX,4.0,6.0,True,1.0,18.0,0.0,0.0,3.0,6.0,1.0,0.0,116.4,8739.539999999999
2.0,1.0,967,43.0,2.0,3.0,2.0,0.0,21800668.0,3.0,1.0,0.0,112.1,2.0,0.0,4.62,-4.0,0.0,37.0,3.0,0.0,99.77,0.0,0.0,1.0,0.0,6.0,1.0,2.0,0.0,De'Anthony Melton,1.0,2.0,PHX,0.0,0.0,True,0.0,5.0,1.0,1.0,0.0,0.0,2.0,0.0,97.1,4467.54
3.5,2.0,941,41.0,2.0,1.0,2.0,0.0,21800668.0,1.0,0.0,0.0,106.1,0.0,0.0,4.42,-3.0,0.0,33.0,1.0,3.0,102.54,0.0,0.0,0.0,0.0,3.0,0.0,2.0,4.0,Elie Okobo,1.0,1.0,PHX,1.0,1.0,False,0.0,0.0,2.0,0.0,0.0,3.0,0.0,0.0,94.1,4159.22
0.8,1.0,1123,23.0,1.0,5.0,1.0,0.0,21800668.0,2.0,1.0,0.0,110.0,0.0,0.0,3.87,-3.0,0.0,15.0,2.0,1.0,102.58,0.0,0.0,0.0,0.0,0.0,2.0,2.0,0.0,Josh Jackson,2.0,2.0,PHX,1.0,1.0,False,1.0,0.0,1.0,0.0,0.0,0.0,0.0,0.0,102.5,4346.01
2.2,4.0,1789,51.0,4.0,5.0,4.0,0.0,21800668.0,2.0,0.0,0.0,116.1,1.0,5.0,4.08,-2.0,0.0,25.0,4.0,0.0,99.01,0.0,0.0,6.0,0.0,3.0,4.0,6.0,10.0,Kelly Oubre Jr.,2.0,9.0,PHX,1.0,3.0,False,6.0,2.0,1.0,0.0,0.0,11.0,0.0,3.0,114.8,7299.12
0.6,3.0,771,19.0,4.0,3.0,6.0,0.0,21800668.0,5.0,1.0,0.0,106.9,1.0,1.0,4.25,-7.0,3.0,12.0,0.0,0.0,106.46,0.0,0.0,3.0,4.0,1.0,2.0,0.0,2.0,Richaun Holmes,1.0,3.0,PHX,0.0,3.0,False,5.0,3.0,0.0,1.0,0.0,1.0,0.0,0.0,85.7,3276.75
0.2,0.0,324,9.0,0.0,0.0,2.0,0.0,21800668.0,0.0,2.0,0.0,61.5,0.0,0.0,4.5,3.0,0.0,8.0,0.0,0.0,115.59,0.0,0.0,0.0,0.0,0.0,0.0,1.0,0.0,Quincy Acy,0.0,0.0,PHX,0.0,0.0,False,0.0,0.0,0.0,1.0,0.0,0.0,0.0,0.0,84.6,1458.0
0.0,0.0,0,0.0,0.0,0.0,0.0,0.0,21800668.0,0.0,0.0,0.0,0.0,0.0,0.0,0.0,0.0,0.0,0.0,0.0,0.0,0.0,0.0,0.0,0.0,0.0,0.0,0.0,0.0,0.0,Ryan Anderson,0.0,0.0,PHX,0.0,0.0,False,0.0,0.0,0.0,0.0,0.0,0.0,0.0,0.0,0.0,0.0
0.0,0.0,0,0.0,0.0,0.0,0.0,0.0,21800668.0,0.0,0.0,0.0,0.0,0.0,0.0,0.0,0.0,0.0,0.0,0.0,0.0,0.0,0.0,0.0,0.0,0.0,0.0,0.0,0.0,0.0,Dragan Bender,0.0,0.0,PHX,0.0,0.0,False,0.0,0.0,0.0,0.0,0.0,0.0,0.0,0.0,0.0,0.0
0.0,0.0,0,0.0,0.0,0.0,0.0,0.0,21800668.0,0.0,0.0,0.0,0.0,0.0,0.0,0.0,0.0,0.0,0.0,0.0,0.0,0.0,0.0,0.0,0.0,0.0,0.0,0.0,0.0,0.0,Troy Daniels,0.0,0.0,PHX,0.0,0.0,False,0.0,0.0,0.0,0.0,0.0,0.0,0.0,0.0,0.0,0.0
1.0,2.0,1572,35.0,2.0,1.0,7.0,1.0,21800668.0,5.0,0.0,1.0,105.6,1.0,0.0,4.56,3.0,0.0,27.0,1.0,0.0,98.93,0.0,0.0,0.0,0.0,4.0,2.0,3.0,0.0,Danny Green,2.0,3.0,TOR,1.0,0.0,True,1.0,2.0,1.0,0.0,0.0,2.0,0.0,3.0,111.1,7168.32
3.1,3.0,1980,68.0,5.0,13.0,4.0,5.0,21800668.0,7.0,2.0,0.0,110.3,5.0,2.0,4.4,-3.0,0.0,54.0,10.0,1.0,98.91,0.0,0.0,5.0,0.0,8.0,1.0,3.0,2.0,Pascal Siakam,4.0,5.0,TOR,0.0,1.0,True,2.0,12.0,1.0,2.0,0.0,2.0,0.0,0.0,105.9,8712.0
1.4,2.0,1875,48.0,4.0,8.0,7.0,7.0,21800668.0,2.0,5.0,1.0,103.0,1.0,3.0,4.04,1.0,4.0,25.0,3.0,1.0,99.84,0.0,0.0,5.0,5.0,0.0,0.0,1.0,2.0,Serge Ibaka,11.0,18.0,TOR,0.0,3.0,True,12.0,2.0,0.0,1.0,0.0,0.0,0.0,0.0,107.8,7575.0
4.5,2.0,1865,54.0,2.0,2.0,4.0,0.0,21800668.0,5.0,2.0,0.0,115.6,4.0,0.0,4.42,-7.0,0.0,41.0,2.0,1.0,98.06,0.0,0.0,2.0,1.0,8.0,5.0,3.0,2.0,Fred VanVleet,5.0,8.0,TOR,1.0,0.0,True,1.0,9.0,0.0,1.0,0.0,2.0,1.0,0.0,106.3,8243.3
6.2,1.0,2382,91.0,2.0,11.0,2.0,0.0,21800668.0,5.0,2.0,2.0,101.2,8.0,1.0,3.79,11.0,1.0,68.0,8.0,3.0,101.56,0.0,3.0,3.0,4.0,16.0,5.0,10.0,6.0,Kyle Lowry,2.0,5.0,TOR,2.0,4.0,True,3.0,17.0,2.0,0.0,0.0,6.0,0.0,0.0,114.3,9027.78
1.2,0.0,1241,24.0,0.0,3.0,2.0,0.0,21800668.0,1.0,0.0,0.0,109.3,2.0,0.0,4.31,7.0,0.0,14.0,1.0,0.0,102.11,0.0,0.0,3.0,1.0,2.0,2.0,1.0,2.0,Norman Powell,1.0,3.0,TOR,0.0,2.0,False,2.0,4.0,2.0,0.0,0.0,2.0,0.0,0.0,120.0,5348.709999999999
0.7,1.0,687,21.0,1.0,6.0,5.0,3.0,21800668.0,0.0,3.0,0.0,116.7,0.0,2.0,4.06,-4.0,2.0,11.0,3.0,0.0,100.63,0.0,0.0,3.0,1.0,1.0,1.0,0.0,2.0,Greg Monroe,4.0,7.0,TOR,0.0,2.0,False,3.0,0.0,0.0,2.0,0.0,1.0,0.0,0.0,100.0,2789.22
3.1,2.0,1110,38.0,4.0,0.0,5.0,0.0,21800668.0,1.0,0.0,1.0,107.5,5.0,0.0,4.39,2.0,0.0,31.0,0.0,1.0,102.49,0.0,0.0,0.0,0.0,8.0,2.0,0.0,0.0,Delon Wright,4.0,5.0,TOR,0.0,1.0,False,0.0,12.0,1.0,0.0,2.0,2.0,0.0,0.0,115.4,4872.9
0.7,0.0,1020,28.0,1.0,1.0,1.0,0.0,21800668.0,0.0,1.0,1.0,108.6,1.0,1.0,4.1,5.0,0.0,20.0,0.0,1.0,100.24,0.0,0.0,1.0,0.0,0.0,2.0,5.0,0.0,CJ Miles,2.0,2.0,TOR,3.0,0.0,False,0.0,2.0,2.0,0.0,0.0,0.0,0.0,0.0,119.4,4182.0
0.2,0.0,350,8.0,0.0,1.0,2.0,0.0,21800668.0,1.0,0.0,0.0,141.7,0.0,0.0,4.63,-10.0,0.0,6.0,1.0,0.0,94.63,0.0,0.0,0.0,0.0,0.0,1.0,1.0,0.0,Patrick McCaw,0.0,0.0,TOR,0.0,1.0,False,0.0,0.0,0.0,0.0,0.0,0.0,0.0,0.0,63.6,1620.5
0.1,1.0,318,7.0,3.0,0.0,4.0,0.0,21800668.0,1.0,0.0,0.0,100.0,0.0,0.0,4.45,5.0,3.0,4.0,0.0,0.0,113.17,0.0,0.0,0.0,1.0,0.0,0.0,1.0,0.0,Chris Boucher,1.0,2.0,TOR,0.0,0.0,False,2.0,0.0,0.0,1.0,1.0,1.0,0.0,0.0,150.0,1415.1000000000001
0.0,0.0,0,0.0,0.0,0.0,0.0,0.0,21800668.0,0.0,0.0,0.0,0.0,0.0,0.0,0.0,0.0,0.0,0.0,0.0,0.0,0.0,0.0,0.0,0.0,0.0,0.0,0.0,0.0,0.0,Kawhi Leonard,0.0,0.0,TOR,0.0,0.0,False,0.0,0.0,0.0,0.0,0.0,0.0,0.0,0.0,0.0,0.0
0.0,0.0,0,0.0,0.0,0.0,0.0,0.0,00000000.0,0.0,0.0,0.0,0.0,0.0,0.0,0.0,0.0,0.0,0.0,0.0,0.0,0.0,0.0,0.0,0.0,0.0,0.0,0.0,0.0,0.0,Richard Manning,0.0,0.0,0,0.0,0.0,False,0.0,0.0,0.0,0.0,0.0,0.0,0.0,0.0,0.0,0.0
0.0,0.0,0,0.0,0.0,0.0,0.0,0.0,00000000.0,0.0,0.0,0.0,0.0,0.0,0.0,0.0,0.0,0.0,0.0,0.0,0.0,0.0,0.0,0.0,0.0,0.0,0.0,0.0,0.0,0.0,John Amaechi,0.0,0.0,0,0.0,0.0,False,0.0,0.0,0.0,0.0,0.0,0.0,0.0,0.0,0.0,0.0
0.0,0.0,1841,0.0,0.0,0.0,1.0,0.0,0021800665,2.0,2.0,0.0,103.1,1.0,1.0,0.0,-7.0,0.0,0.0,3.0,0.0,100.12,0.0,0.0,0.0,0.0,0.0,0.0,6.0,2.0,Kevin Knox,2.0,5.0,NYK,0.0,0.0,True,0.0,2.0,0.0,0.0,0.0,1.0,0.0,0.0,92.2,0.0
0.0,0.0,1479,0.0,0.0,0.0,9.0,0.0,0021800665,2.0,2.0,0.0,100.0,1.0,1.0,0.0,6.0,0.0,0.0,9.0,0.0,102.26,0.0,0.0,0.0,0.0,0.0,0.0,1.0,2.0,Noah Vonleh,6.0,10.0,NYK,0.0,0.0,True,0.0,3.0,0.0,0.0,0.0,1.0,0.0,0.0,109.4,0.0
0.0,0.0,2035,0.0,0.0,0.0,16.0,0.0,0021800665,7.0,6.0,0.0,104.2,2.0,1.0,0.0,-2.0,4.0,0.0,2.0,4.0,101.2,0.0,0.0,0.0,0.0,0.0,4.0,6.0,2.0,Luke Kornet,1.0,5.0,NYK,4.0,2.0,True,0.0,5.0,5.0,1.0,0.0,2.0,0.0,0.0,100.0,0.0
0.0,0.0,1470,0.0,0.0,0.0,1.0,0.0,0021800665,1.0,1.0,0.0,108.0,1.0,0.0,0.0,-7.0,0.0,0.0,2.0,0.0,98.94,0.0,0.0,0.0,0.0,0.0,0.0,4.0,2.0,Tim Hardaway Jr.,0.0,3.0,NYK,2.0,3.0,True,0.0,2.0,0.0,0.0,0.0,2.0,0.0,0.0,92.2,0.0
0.0,0.0,1874,0.0,0.0,0.0,5.0,0.0,0021800665,5.0,0.0,0.0,107.7,2.0,1.0,0.0,-12.0,0.0,0.0,6.0,3.0,100.66,0.0,0.0,0.0,0.0,0.0,0.0,3.0,2.0,Emmanuel Mudiay,10.0,15.0,NYK,1.0,5.0,True,0.0,5.0,0.0,0.0,0.0,2.0,0.0,0.0,87.9,0.0
0.0,0.0,1006,0.0,0.0,0.0,4.0,0.0,0021800665,2.0,0.0,0.0,93.9,2.0,0.0,0.0,11.0,0.0,0.0,3.0,0.0,97.34,1.0,0.0,0.0,0.0,0.0,0.0,2.0,0.0,Frank Ntilikina,0.0,5.0,NYK,1.0,1.0,False,0.0,6.0,0.0,1.0,0.0,0.0,0.0,0.0,120.0,0.0
0.0,0.0,1519,0.0,0.0,0.0,3.0,0.0,0021800665,3.0,3.0,0.0,100.0,2.0,0.0,0.0,7.0,0.0,0.0,3.0,0.0,99.54,0.0,0.0,0.0,0.0,0.0,0.0,4.0,0.0,Damyean Dotson,2.0,4.0,NYK,3.0,0.0,False,0.0,5.0,0.0,0.0,0.0,0.0,0.0,0.0,111.3,0.0
0.0,0.0,1170,0.0,0.0,0.0,5.0,0.0,0021800665,1.0,1.0,0.0,102.4,1.0,0.0,0.0,-6.0,0.0,0.0,6.0,0.0,102.15,0.0,0.0,0.0,0.0,0.0,0.0,1.0,0.0,Mario Hezonja,0.0,3.0,NYK,0.0,1.0,False,0.0,2.0,0.0,0.0,0.0,0.0,0.0,0.0,85.7,0.0
0.0,0.0,1409,0.0,0.0,0.0,3.0,0.0,0021800665,1.0,2.0,0.0,100.0,3.0,0.0,0.0,4.0,0.0,0.0,2.0,1.0,95.05,0.0,0.0,0.0,0.0,0.0,2.0,2.0,0.0,Allonzo Trier,4.0,6.0,NYK,1.0,2.0,False,0.0,8.0,1.0,0.0,2.0,2.0,0.0,0.0,106.4,0.0
0.0,0.0,598,0.0,0.0,0.0,5.0,0.0,0021800665,1.0,3.0,0.0,90.0,0.0,2.0,0.0,1.0,1.0,0.0,0.0,0.0,98.8,0.0,0.0,0.0,0.0,0.0,0.0,0.0,0.0,Mitchell Robinson,2.0,2.0,NYK,0.0,0.0,False,0.0,0.0,0.0,1.0,0.0,0.0,0.0,0.0,90.5,0.0
0.0,0.0,0,0.0,0.0,0.0,0.0,0.0,0021800665,0.0,0.0,0.0,0.0,0.0,0.0,0.0,0.0,0.0,0.0,0.0,0.0,0.0,0.0,0.0,0.0,0.0,0.0,0.0,0.0,0.0,Trey Burke,0.0,0.0,NYK,0.0,0.0,False,0.0,0.0,0.0,0.0,0.0,0.0,0.0,0.0,0.0,0.0
0.0,0.0,0,0.0,0.0,0.0,0.0,0.0,0021800665,0.0,0.0,0.0,0.0,0.0,0.0,0.0,0.0,0.0,0.0,0.0,0.0,0.0,0.0,0.0,0.0,0.0,0.0,0.0,0.0,0.0,Courtney Lee,0.0,0.0,NYK,0.0,0.0,False,0.0,0.0,0.0,0.0,0.0,0.0,0.0,0.0,0.0,0.0
0.0,0.0,0,0.0,0.0,0.0,0.0,0.0,0021800665,0.0,0.0,0.0,0.0,0.0,0.0,0.0,0.0,0.0,0.0,0.0,0.0,0.0,0.0,0.0,0.0,0.0,0.0,0.0,0.0,0.0,Lance Thomas,0.0,0.0,NYK,0.0,0.0,False,0.0,0.0,0.0,0.0,0.0,0.0,0.0,0.0,0.0,0.0
0.0,0.0,2305,0.0,0.0,0.0,4.0,0.0,0021800665,3.0,0.0,0.0,93.7,7.0,2.0,0.0,9.0,0.0,0.0,5.0,2.0,98.71,0.0,0.0,0.0,0.0,0.0,1.0,8.0,6.0,Trevor Ariza,1.0,3.0,WAS,2.0,1.0,True,0.0,15.0,0.0,0.0,0.0,4.0,0.0,0.0,105.1,0.0
0.0,0.0,1258,0.0,0.0,0.0,6.0,0.0,0021800665,2.0,2.0,0.0,108.7,1.0,1.0,0.0,-5.0,2.0,0.0,2.0,0.0,104.13,0.0,0.0,0.0,0.0,0.0,1.0,2.0,4.0,Jeff Green,0.0,2.0,WAS,0.0,1.0,True,0.0,3.0,1.0,0.0,0.0,3.0,0.0,0.0,100.0,0.0
0.0,0.0,940,0.0,0.0,0.0,8.0,0.0,0021800665,2.0,3.0,0.0,88.2,0.0,3.0,0.0,-1.0,1.0,0.0,6.0,0.0,105.72,0.0,0.0,0.0,0.0,0.0,0.0,0.0,0.0,Thomas Bryant,5.0,7.0,WAS,0.0,0.0,True,0.0,0.0,0.0,1.0,0.0,0.0,0.0,0.0,82.9,0.0
0.0,0.0,2401,0.0,0.0,0.0,3.0,0.0,0021800665,6.0,1.0,0.0,95.2,4.0,4.0,0.0,6.0,0.0,0.0,5.0,3.0,100.16,0.0,0.0,0.0,0.0,0.0,2.0,9.0,4.0,Bradley Beal,8.0,20.0,WAS,2.0,7.0,True,0.0,9.0,2.0,0.0,1.0,4.0,0.0,0.0,101.2,0.0
0.0,0.0,1815,0.0,0.0,0.0,7.0,0.0,0021800665,4.0,1.0,0.0,116.9,5.0,1.0,0.0,-10.0,0.0,0.0,1.0,1.0,103.14,0.0,0.0,0.0,0.0,0.0,1.0,2.0,0.0,Tomas Satoransky,4.0,6.0,WAS,2.0,1.0,True,0.0,11.0,2.0,1.0,0.0,0.0,0.0,0.0,101.5,0.0
0.0,0.0,1395,0.0,0.0,0.0,3.0,0.0,0021800665,4.0,1.0,0.0,97.8,2.0,0.0,0.0,4.0,0.0,0.0,2.0,0.0,92.93,0.0,0.0,0.0,0.0,0.0,3.0,2.0,0.0,Chasson Randle,2.0,4.0,WAS,0.0,0.0,False,0.0,5.0,0.0,0.0,0.0,0.0,0.0,0.0,111.4,0.0
0.0,0.0,2094,0.0,0.0,0.0,4.0,0.0,0021800665,1.0,2.0,0.0,105.6,0.0,1.0,0.0,2.0,0.0,0.0,10.0,2.0,96.97,0.0,0.0,0.0,0.0,0.0,4.0,3.0,4.0,Otto Porter Jr.,7.0,13.0,WAS,1.0,1.0,False,0.0,0.0,2.0,0.0,1.0,3.0,0.0,0.0,110.0,0.0
0.0,0.0,465,0.0,0.0,0.0,3.0,0.0,0021800665,1.0,4.0,0.0,152.9,1.0,0.0,0.0,-8.0,2.0,0.0,0.0,0.0,102.11,0.0,0.0,0.0,0.0,0.0,0.0,0.0,0.0,Ian Mahinmi,0.0,0.0,WAS,0.0,0.0,False,0.0,2.0,0.0,0.0,0.0,0.0,0.0,0.0,112.5,0.0
0.0,0.0,1162,0.0,0.0,0.0,1.0,0.0,0021800665,4.0,1.0,0.0,92.1,2.0,3.0,0.0,3.0,0.0,0.0,2.0,1.0,95.42,0.0,0.0,0.0,0.0,0.0,0.0,0.0,0.0,Sam Dekker,5.0,9.0,WAS,0.0,2.0,False,0.0,4.0,1.0,0.0,0.0,0.0,0.0,0.0,97.4,0.0
0.0,0.0,565,0.0,0.0,0.0,2.0,0.0,0021800665,1.0,0.0,0.0,50.0,1.0,0.0,0.0,5.0,0.0,0.0,3.0,2.0,104.5,0.0,0.0,0.0,0.0,0.0,1.0,1.0,0.0,Troy Brown Jr.,1.0,1.0,WAS,0.0,0.0,False,0.0,2.0,1.0,0.0,0.0,0.0,0.0,0.0,71.4,0.0
0.0,0.0,0,0.0,0.0,0.0,0.0,0.0,0021800665,0.0,0.0,0.0,0.0,0.0,0.0,0.0,0.0,0.0,0.0,0.0,0.0,0.0,0.0,0.0,0.0,0.0,0.0,0.0,0.0,0.0,Devin Robinson,0.0,0.0,WAS,0.0,0.0,False,0.0,0.0,0.0,0.0,0.0,0.0,0.0,0.0,0.0,0.0
5.7,0.0,2257,76.0,0.0,7.0,2.0,1.0,0021800670,6.0,0.0,1.0,129.1,11.0,1.0,4.2,-9.0,0.0,58.0,4.0,2.0,101.44,0.0,0.0,2.0,2.0,17.0,0.0,2.0,6.0,Brandon Ingram,1.0,7.0,LAL,0.0,4.0,True,1.0,28.0,0.0,1.0,0.0,6.0,0.0,0.0,116.3,9479.4
3.2,2.0,2177,74.0,5.0,11.0,7.0,2.0,0021800670,4.0,3.0,2.0,118.8,4.0,1.0,4.32,-4.0,0.0,47.0,7.0,0.0,106.5,0.0,1.0,5.0,0.0,6.0,2.0,12.0,2.0,Kyle Kuzma,4.0,8.0,LAL,7.0,4.0,True,0.0,9.0,3.0,0.0,0.0,3.0,0.0,0.0,112.3,9404.640000000001
0.3,2.0,960,18.0,4.0,7.0,7.0,1.0,0021800670,0.0,5.0,0.0,137.1,0.0,3.0,3.6,-13.0,1.0,9.0,4.0,1.0,108.0,0.0,0.0,5.0,3.0,0.0,0.0,0.0,0.0,Tyson Chandler,3.0,6.0,LAL,0.0,1.0,True,6.0,0.0,0.0,2.0,0.0,0.0,0.0,0.0,94.6,3456.0
1.0,0.0,1403,30.0,0.0,3.0,1.0,0.0,0021800670,4.0,0.0,0.0,136.0,1.0,0.0,4.31,-13.0,0.0,20.0,2.0,1.0,103.66,0.0,0.0,2.0,0.0,1.0,3.0,4.0,0.0,Kentavious Caldwell-Pope,2.0,3.0,LAL,3.0,2.0,True,0.0,3.0,2.0,0.0,0.0,0.0,0.0,0.0,107.8,6046.929999999999
5.8,1.0,1982,88.0,2.0,6.0,7.0,0.0,0021800670,4.0,2.0,1.0,130.0,10.0,0.0,4.45,-12.0,1.0,66.0,6.0,0.0,101.71,0.0,0.0,1.0,2.0,13.0,5.0,10.0,0.0,Lonzo Ball,3.0,7.0,LAL,4.0,4.0,True,1.0,25.0,1.0,0.0,0.0,0.0,0.0,0.0,112.9,8819.9
0.5,0.0,525,16.0,1.0,3.0,2.0,2.0,0021800670,1.0,7.0,0.0,168.4,0.0,1.0,4.26,-9.0,1.0,13.0,1.0,0.0,106.97,0.0,0.0,2.0,1.0,2.0,0.0,0.0,0.0,JaVale McGee,2.0,2.0,LAL,0.0,0.0,False,1.0,0.0,0.0,1.0,0.0,0.0,0.0,0.0,115.0,2236.5
2.0,1.0,1989,48.0,2.0,13.0,6.0,0.0,0021800670,10.0,5.0,0.0,98.6,5.0,1.0,4.26,23.0,0.0,39.0,9.0,3.0,105.7,0.0,0.0,3.0,3.0,8.0,5.0,4.0,4.0,Josh Hart,1.0,2.0,LAL,2.0,1.0,False,1.0,13.0,3.0,1.0,1.0,4.0,0.0,0.0,130.1,8473.14
0.9,0.0,517,16.0,0.0,3.0,0.0,1.0,0021800670,1.0,0.0,0.0,94.4,2.0,0.0,4.35,6.0,0.0,8.0,2.0,0.0,100.27,0.0,0.0,0.0,2.0,2.0,1.0,1.0,0.0,Michael Beasley,2.0,5.0,LAL,0.0,2.0,False,0.0,4.0,1.0,0.0,1.0,1.0,0.0,0.0,127.8,2248.95
1.3,0.0,1690,51.0,2.0,13.0,2.0,3.0,0021800670,2.0,19.0,0.0,73.8,1.0,6.0,4.03,35.0,3.0,31.0,6.0,0.0,105.68,0.0,0.0,8.0,12.0,2.0,0.0,0.0,2.0,Ivica Zubac,12.0,14.0,LAL,0.0,4.0,False,18.0,2.0,0.0,0.0,1.0,2.0,0.0,0.0,127.0,6810.700000000001
1.0,0.0,1119,24.0,1.0,5.0,1.0,0.0,0021800670,4.0,0.0,1.0,90.7,1.0,1.0,4.54,14.0,0.0,16.0,3.0,0.0,110.67,0.0,0.0,1.0,0.0,1.0,1.0,6.0,0.0,Svi Mykhailiuk,0.0,1.0,LAL,2.0,0.0,False,1.0,2.0,0.0,0.0,1.0,1.0,0.0,0.0,123.3,5080.26
2.5,0.0,808,29.0,0.0,4.0,0.0,0.0,0021800670,2.0,0.0,0.0,56.3,2.0,0.0,4.05,21.0,0.0,26.0,3.0,0.0,115.84,0.0,0.0,1.0,0.0,5.0,0.0,0.0,0.0,Lance Stephenson,1.0,2.0,LAL,0.0,1.0,False,0.0,4.0,1.0,0.0,0.0,0.0,0.0,0.0,118.2,3272.3999999999996
0.4,0.0,473,11.0,2.0,4.0,1.0,1.0,0021800670,2.0,0.0,0.0,72.2,0.0,0.0,4.12,11.0,0.0,6.0,2.0,0.0,112.64,1.0,0.0,2.0,0.0,0.0,1.0,1.0,2.0,Moritz Wagner,0.0,2.0,LAL,1.0,0.0,False,0.0,0.0,0.0,1.0,0.0,2.0,0.0,0.0,126.3,1948.76
3.5,1.0,2611,66.0,2.0,12.0,2.0,1.0,0021800670,7.0,1.0,1.0,120.4,8.0,2.0,3.99,4.0,0.0,40.0,5.0,1.0,102.58,0.0,1.0,5.0,3.0,17.0,6.0,12.0,4.0,Paul George,4.0,7.0,OKC,5.0,3.0,True,1.0,22.0,3.0,0.0,1.0,4.0,1.0,0.0,124.7,10417.890000000001
1.4,1.0,2339,55.0,4.0,7.0,6.0,4.0,0021800670,8.0,2.0,0.0,117.9,2.0,1.0,4.36,-2.0,0.0,40.0,2.0,0.0,104.04,1.0,0.0,4.0,3.0,1.0,1.0,6.0,0.0,Jerami Grant,3.0,7.0,OKC,2.0,1.0,True,6.0,5.0,0.0,3.0,2.0,2.0,0.0,0.0,114.1,10198.04
2.3,5.0,2479,70.0,8.0,15.0,9.0,6.0,0021800670,2.0,5.0,1.0,111.1,1.0,7.0,4.0,10.0,2.0,55.0,8.0,1.0,103.98,0.0,0.0,15.0,1.0,3.0,7.0,0.0,6.0,Steven Adams,6.0,9.0,OKC,0.0,2.0,True,15.0,3.0,4.0,0.0,0.0,5.0,1.0,0.0,123.6,9916.0
0.9,0.0,2242,34.0,1.0,6.0,5.0,0.0,0021800670,6.0,0.0,0.0,108.5,2.0,1.0,4.27,0.0,0.0,15.0,2.0,1.0,104.69,0.0,0.0,2.0,2.0,1.0,3.0,12.0,2.0,Terrance Ferguson,0.0,1.0,OKC,6.0,2.0,True,3.0,5.0,1.0,0.0,0.0,3.0,0.0,3.0,109.9,9573.339999999998
9.3,2.0,2601,122.0,2.0,10.0,2.0,4.0,0021800670,0.0,1.0,1.0,111.6,13.0,2.0,3.97,5.0,0.0,85.0,7.0,1.0,105.19,0.0,1.0,6.0,3.0,30.0,2.0,12.0,6.0,Russell Westbrook,2.0,18.0,OKC,5.0,3.0,True,1.0,33.0,1.0,1.0,0.0,7.0,4.0,3.0,116.8,10325.970000000001
3.0,2.0,990,36.0,3.0,3.0,1.0,0.0,0021800670,2.0,0.0,0.0,137.8,2.0,0.0,4.27,-12.0,1.0,25.0,1.0,0.0,107.64,2.0,0.0,0.0,0.0,8.0,1.0,5.0,2.0,Dennis Schroder,2.0,2.0,OKC,1.0,3.0,False,0.0,5.0,0.0,0.0,0.0,2.0,0.0,0.0,105.4,4227.299999999999
0.2,0.0,684,8.0,0.0,1.0,0.0,0.0,0021800670,3.0,0.0,0.0,144.0,0.0,0.0,4.56,-10.0,0.0,3.0,1.0,0.0,105.26,0.0,0.0,0.0,0.0,0.0,1.0,2.0,2.0,Abdel Nader,0.0,1.0,OKC,0.0,0.0,False,0.0,0.0,0.0,0.0,0.0,1.0,0.0,0.0,104.0,3119.0399999999995
0.3,1.0,578,13.0,2.0,0.0,3.0,0.0,0021800670,1.0,2.0,0.0,145.0,1.0,0.0,4.32,-11.0,0.0,9.0,0.0,0.0,104.64,0.0,0.0,0.0,0.0,0.0,0.0,4.0,0.0,Patrick Patterson,0.0,0.0,OKC,3.0,0.0,False,0.0,2.0,0.0,0.0,1.0,0.0,0.0,0.0,81.8,2496.96
0.4,4.0,701,18.0,4.0,3.0,2.0,0.0,0021800670,1.0,3.0,0.0,140.7,1.0,1.0,4.15,-20.0,2.0,13.0,1.0,0.0,110.93,0.0,0.0,4.0,1.0,2.0,1.0,0.0,0.0,Nerlens Noel,2.0,3.0,OKC,0.0,1.0,False,3.0,3.0,1.0,0.0,0.0,0.0,0.0,0.0,66.7,2909.15
0.3,1.0,675,11.0,2.0,2.0,0.0,0.0,0021800670,1.0,0.0,0.0,107.1,1.0,1.0,4.36,-14.0,0.0,7.0,2.0,1.0,117.33,0.0,0.0,2.0,0.0,1.0,0.0,1.0,2.0,Hamidou Diallo,0.0,2.0,OKC,0.0,0.0,False,2.0,3.0,0.0,0.0,0.0,0.0,0.0,0.0,59.3,2943.0
0.0,0.0,0,0.0,0.0,0.0,0.0,0.0,0021800670,0.0,0.0,0.0,0.0,0.0,0.0,0.0,0.0,0.0,0.0,0.0,0.0,0.0,0.0,0.0,0.0,0.0,0.0,0.0,0.0,0.0,Raymond Felton,0.0,0.0,OKC,0.0,0.0,False,0.0,0.0,0.0,0.0,0.0,0.0,0.0,0.0,0.0,0.0
0.0,0.0,0,0.0,0.0,0.0,0.0,0.0,0021800670,0.0,0.0,0.0,0.0,0.0,0.0,0.0,0.0,0.0,0.0,0.0,0.0,0.0,0.0,0.0,0.0,0.0,0.0,0.0,0.0,0.0,Timothe Luwawu-Cabarrot,0.0,0.0,OKC,0.0,0.0,False,0.0,0.0,0.0,0.0,0.0,0.0,0.0,0.0,0.0,0.0
3.7,4.0,2083,59.0,5.0,8.0,7.0,0.0,0021800667,6.0,2.0,0.0,101.4,8.0,1.0,4.17,11.0,1.0,39.0,4.0,3.0,99.55,0.0,0.0,1.0,4.0,12.0,4.0,2.0,6.0,Jimmy Butler,9.0,15.0,PHI,1.0,0.0,True,4.0,19.0,3.0,0.0,0.0,6.0,0.0,0.0,116.7,8686.11
1.4,0.0,1927,46.0,3.0,7.0,7.0,2.0,0021800667,4.0,3.0,1.0,93.1,2.0,1.0,4.21,14.0,0.0,34.0,2.0,1.0,106.86,0.0,0.0,2.0,1.0,2.0,0.0,6.0,0.0,Wilson Chandler,2.0,3.0,PHI,2.0,1.0,True,1.0,5.0,1.0,0.0,0.0,0.0,0.0,0.0,114.1,8112.67
2.5,6.0,2076,79.0,13.0,18.0,17.0,11.0,0021800667,3.0,6.0,1.0,93.5,8.0,3.0,3.92,18.0,9.0,52.0,10.0,1.0,106.82,0.0,0.0,6.0,2.0,9.0,1.0,7.0,2.0,Joel Embiid,7.0,12.0,PHI,2.0,5.0,True,5.0,23.0,1.0,3.0,0.0,2.0,0.0,0.0,116.9,8137.92
1.1,3.0,2000,38.0,3.0,6.0,4.0,0.0,0021800667,0.0,2.0,0.0,92.0,5.0,0.0,4.5,18.0,0.0,23.0,3.0,1.0,106.59,0.0,0.0,0.0,0.0,3.0,1.0,9.0,0.0,JJ Redick,1.0,3.0,PHI,6.0,1.0,True,0.0,10.0,0.0,0.0,0.0,0.0,0.0,0.0,119.2,9000.0
6.9,1.0,2001,82.0,1.0,11.0,4.0,3.0,0021800667,4.0,2.0,2.0,100.0,8.0,1.0,4.35,13.0,2.0,62.0,7.0,2.0,102.19,0.0,0.0,4.0,6.0,14.0,2.0,0.0,2.0,Ben Simmons,5.0,10.0,PHI,0.0,6.0,True,8.0,20.0,1.0,1.0,0.0,1.0,0.0,0.0,118.3,8704.349999999999
0.4,1.0,879,13.0,2.0,2.0,3.0,0.0,0021800667,1.0,0.0,0.0,87.1,1.0,0.0,4.53,6.0,0.0,7.0,2.0,0.0,99.93,0.0,0.0,0.0,0.0,1.0,1.0,3.0,0.0,Landry Shamet,0.0,2.0,PHI,2.0,1.0,False,0.0,2.0,0.0,0.0,0.0,0.0,0.0,0.0,110.0,3981.8700000000003
4.6,1.0,1263,48.0,3.0,7.0,2.0,0.0,0021800667,2.0,0.0,1.0,86.7,5.0,0.0,4.42,9.0,0.0,39.0,4.0,0.0,100.33,0.0,0.0,0.0,0.0,7.0,0.0,0.0,0.0,T.J. McConnell,3.0,6.0,PHI,0.0,0.0,False,0.0,12.0,1.0,1.0,1.0,1.0,0.0,0.0,111.6,5582.46
0.4,1.0,760,18.0,4.0,7.0,4.0,0.0,0021800667,1.0,3.0,0.0,78.6,0.0,2.0,4.2,8.0,1.0,13.0,4.0,1.0,102.38,0.0,0.0,3.0,1.0,2.0,1.0,3.0,0.0,Jonah Bolden,0.0,0.0,PHI,2.0,2.0,False,2.0,0.0,0.0,0.0,0.0,0.0,0.0,0.0,115.4,3192.0
0.6,1.0,1343,33.0,1.0,10.0,9.0,1.0,0021800667,1.0,8.0,0.0,76.0,0.0,1.0,4.62,19.0,0.0,27.0,6.0,0.0,107.22,0.0,0.0,4.0,0.0,0.0,1.0,4.0,0.0,Mike Muscala,1.0,2.0,PHI,3.0,0.0,False,3.0,0.0,1.0,1.0,0.0,0.0,0.0,0.0,114.0,6204.66
0.0,0.0,69,1.0,0.0,0.0,0.0,0.0,0021800667,0.0,0.0,0.0,66.7,1.0,0.0,4.51,4.0,0.0,1.0,0.0,0.0,125.22,0.0,0.0,0.0,0.0,1.0,0.0,0.0,0.0,Furkan Korkmaz,0.0,0.0,PHI,0.0,0.0,False,0.0,0.0,0.0,0.0,0.0,0.0,0.0,0.0,200.0,311.19
0.0,0.0,0,0.0,0.0,0.0,0.0,0.0,0021800667,0.0,0.0,0.0,0.0,0.0,0.0,0.0,0.0,0.0,0.0,0.0,0.0,0.0,0.0,0.0,0.0,0.0,0.0,0.0,0.0,0.0,Corey Brewer,0.0,0.0,PHI,0.0,0.0,False,0.0,0.0,0.0,0.0,0.0,0.0,0.0,0.0,0.0,0.0
0.0,0.0,0,0.0,0.0,0.0,0.0,0.0,0021800667,0.0,0.0,0.0,0.0,0.0,0.0,0.0,0.0,0.0,0.0,0.0,0.0,0.0,0.0,0.0,0.0,0.0,0.0,0.0,0.0,0.0,Amir Johnson,0.0,0.0,PHI,0.0,0.0,False,0.0,0.0,0.0,0.0,0.0,0.0,0.0,0.0,0.0,0.0
0.9,2.0,2105,31.0,3.0,2.0,8.0,0.0,0021800667,4.0,1.0,0.0,110.7,1.0,0.0,4.09,-6.0,0.0,17.0,1.0,0.0,101.93,0.0,0.0,2.0,0.0,2.0,0.0,7.0,2.0,Bojan Bogdanovic,2.0,4.0,IND,1.0,1.0,True,0.0,2.0,0.0,0.0,0.0,2.0,0.0,0.0,104.1,8609.449999999999
1.5,4.0,1914,62.0,6.0,6.0,3.0,2.0,0021800667,2.0,4.0,0.0,123.5,1.0,3.0,4.33,-17.0,4.0,42.0,3.0,4.0,102.32,1.0,0.0,9.0,6.0,5.0,1.0,3.0,2.0,Thaddeus Young,8.0,14.0,IND,3.0,3.0,True,6.0,3.0,1.0,0.0,0.0,2.0,0.0,0.0,98.5,8287.62
1.0,4.0,1926,42.0,6.0,12.0,13.0,4.0,0021800667,2.0,4.0,0.0,124.3,0.0,2.0,4.15,-24.0,0.0,34.0,10.0,2.0,104.67,0.0,0.0,3.0,1.0,0.0,3.0,2.0,6.0,Myles Turner,0.0,3.0,IND,1.0,0.0,True,2.0,0.0,3.0,3.0,0.0,5.0,0.0,0.0,90.0,7992.900000000001
4.3,1.0,2017,54.0,1.0,2.0,1.0,0.0,0021800667,4.0,0.0,0.0,125.0,7.0,2.0,4.33,-23.0,0.0,30.0,0.0,1.0,103.52,0.0,0.0,3.0,0.0,11.0,2.0,6.0,0.0,Victor Oladipo,3.0,14.0,IND,3.0,3.0,True,3.0,19.0,0.0,0.0,0.0,0.0,0.0,0.0,91.8,8733.61
4.9,0.0,1775,61.0,0.0,7.0,0.0,0.0,0021800667,4.0,0.0,0.0,115.4,5.0,0.0,4.2,-17.0,0.0,47.0,6.0,0.0,105.46,0.0,0.0,2.0,0.0,11.0,1.0,1.0,0.0,Darren Collison,3.0,9.0,IND,0.0,2.0,True,0.0,11.0,2.0,0.0,0.0,0.0,0.0,0.0,89.2,7455.0
3.7,0.0,1283,39.0,0.0,2.0,5.0,0.0,0021800667,3.0,1.0,0.0,108.9,6.0,1.0,4.59,-9.0,0.0,31.0,1.0,2.0,101.01,0.0,0.0,1.0,2.0,9.0,1.0,1.0,0.0,Cory Joseph,4.0,5.0,IND,0.0,2.0,False,0.0,13.0,0.0,0.0,0.0,0.0,0.0,0.0,88.9,5888.97
1.4,3.0,1298,52.0,4.0,7.0,3.0,1.0,0021800667,2.0,2.0,0.0,108.7,2.0,2.0,4.24,-11.0,5.0,44.0,6.0,1.0,102.06,0.0,0.0,4.0,6.0,3.0,1.0,0.0,2.0,Domantas Sabonis,3.0,7.0,IND,0.0,0.0,False,6.0,5.0,1.0,0.0,0.0,0.0,0.0,0.0,84.8,5503.52
1.3,0.0,891,24.0,0.0,1.0,2.0,1.0,0021800667,0.0,1.0,0.0,103.3,0.0,1.0,3.92,-2.0,0.0,10.0,1.0,0.0,98.59,0.0,0.0,2.0,0.0,0.0,1.0,4.0,0.0,Tyreke Evans,5.0,10.0,IND,1.0,0.0,False,1.0,0.0,1.0,0.0,0.0,0.0,0.0,0.0,93.5,3492.72
0.1,0.0,357,3.0,0.0,0.0,1.0,0.0,0021800667,1.0,1.0,0.0,107.7,0.0,0.0,4.54,-3.0,0.0,2.0,0.0,1.0,104.87,0.0,0.0,0.0,0.0,0.0,0.0,0.0,0.0,TJ Leaf,1.0,1.0,IND,0.0,0.0,False,1.0,0.0,1.0,0.0,0.0,0.0,0.0,0.0,84.6,1620.78
0.2,0.0,696,13.0,1.0,0.0,0.0,0.0,0021800667,0.0,0.0,0.0,104.2,0.0,1.0,4.46,0.0,0.0,8.0,0.0,0.0,101.38,0.0,0.0,1.0,0.0,0.0,0.0,3.0,0.0,Doug McDermott,1.0,1.0,IND,0.0,1.0,False,0.0,0.0,0.0,0.0,0.0,0.0,0.0,0.0,100.0,3104.16
0.4,0.0,69,5.0,0.0,0.0,0.0,0.0,0021800667,0.0,0.0,0.0,200.0,1.0,0.0,3.36,-4.0,0.0,3.0,0.0,0.0,125.22,0.0,0.0,0.0,0.0,1.0,0.0,2.0,0.0,Aaron Holiday,0.0,0.0,IND,0.0,0.0,False,0.0,2.0,0.0,0.0,0.0,0.0,0.0,0.0,66.7,231.84
0.1,0.0,69,2.0,0.0,0.0,0.0,0.0,0021800667,0.0,0.0,0.0,200.0,0.0,0.0,5.03,-4.0,0.0,2.0,0.0,0.0,125.22,0.0,0.0,0.0,0.0,0.0,0.0,0.0,0.0,Alize Johnson,0.0,0.0,IND,0.0,0.0,False,0.0,0.0,0.0,0.0,0.0,0.0,0.0,0.0,66.7,347.07
0.0,0.0,0,0.0,0.0,0.0,0.0,0.0,0021800667,0.0,0.0,0.0,0.0,0.0,0.0,0.0,0.0,0.0,0.0,0.0,0.0,0.0,0.0,0.0,0.0,0.0,0.0,0.0,0.0,0.0,Kyle O'Quinn,0.0,0.0,IND,0.0,0.0,False,0.0,0.0,0.0,0.0,0.0,0.0,0.0,0.0,0.0,0.0
1.6,0.0,1208,42.0,0.0,4.0,1.0,0.0,0021800666,3.0,0.0,2.0,114.6,0.0,0.0,4.35,-5.0,0.0,31.0,2.0,1.0,97.75,0.0,0.0,1.0,0.0,5.0,1.0,5.0,0.0,Iman Shumpert,2.0,4.0,SAC,1.0,2.0,True,0.0,0.0,0.0,1.0,0.0,0.0,0.0,0.0,102.4,5254.799999999999
0.7,1.0,1162,24.0,1.0,6.0,2.0,0.0,0021800666,1.0,1.0,1.0,92.3,4.0,1.0,4.02,3.0,1.0,19.0,5.0,1.0,97.9,0.0,0.0,3.0,2.0,4.0,0.0,2.0,0.0,Nemanja Bjelica,1.0,3.0,SAC,0.0,0.0,True,2.0,10.0,0.0,0.0,0.0,0.0,0.0,0.0,97.5,4671.24
1.6,3.0,1644,56.0,3.0,10.0,8.0,3.0,0021800666,2.0,8.0,0.0,103.5,4.0,6.0,4.22,-4.0,4.0,46.0,5.0,2.0,99.85,0.0,0.0,7.0,8.0,3.0,6.0,0.0,0.0,Willie Cauley-Stein,4.0,6.0,SAC,0.0,2.0,True,9.0,9.0,3.0,1.0,0.0,0.0,1.0,0.0,96.5,6937.679999999999
1.9,1.0,1926,54.0,2.0,2.0,3.0,1.0,0021800666,4.0,0.0,1.0,104.4,1.0,0.0,4.73,-9.0,0.0,35.0,1.0,0.0,102.43,0.0,0.0,6.0,0.0,5.0,3.0,11.0,0.0,Buddy Hield,3.0,7.0,SAC,6.0,0.0,True,1.0,2.0,2.0,0.0,0.0,0.0,0.0,0.0,89.9,9109.980000000001
5.2,3.0,1830,76.0,3.0,9.0,3.0,1.0,0021800666,3.0,0.0,1.0,101.5,8.0,0.0,4.6,-5.0,0.0,55.0,5.0,1.0,103.87,0.0,0.0,0.0,0.0,10.0,4.0,2.0,2.0,De'Aaron Fox,4.0,8.0,SAC,0.0,4.0,True,0.0,21.0,1.0,1.0,1.0,2.0,0.0,0.0,93.9,8418.0
2.0,3.0,1640,50.0,4.0,3.0,3.0,3.0,0021800666,3.0,4.0,0.0,110.3,2.0,0.0,4.58,-13.0,0.0,34.0,1.0,0.0,102.73,0.0,0.0,0.0,2.0,6.0,2.0,2.0,0.0,Bogdan Bogdanovic,7.0,11.0,SAC,1.0,2.0,False,2.0,4.0,1.0,0.0,0.0,0.0,0.0,0.0,86.4,7511.2
3.9,1.0,982,46.0,2.0,2.0,2.0,0.0,0021800666,0.0,3.0,1.0,126.5,2.0,0.0,4.46,-10.0,0.0,41.0,1.0,0.0,101.18,0.0,0.0,0.0,0.0,4.0,1.0,3.0,0.0,Yogi Ferrell,1.0,2.0,SAC,1.0,0.0,False,0.0,5.0,0.0,0.0,0.0,0.0,0.0,0.0,94.3,4379.72
1.3,2.0,1375,41.0,5.0,5.0,7.0,3.0,0021800666,5.0,6.0,0.0,133.3,1.0,4.0,4.38,-21.0,0.0,25.0,4.0,1.0,100.54,0.0,0.0,6.0,2.0,1.0,0.0,2.0,4.0,Marvin Bagley III,5.0,9.0,SAC,1.0,3.0,False,6.0,3.0,0.0,0.0,0.0,2.0,0.0,0.0,89.6,6022.5
0.9,1.0,1447,29.0,1.0,6.0,1.0,0.0,0021800666,1.0,1.0,0.0,123.5,2.0,0.0,4.15,-14.0,1.0,23.0,3.0,1.0,101.51,0.0,0.0,0.0,0.0,2.0,0.0,4.0,2.0,Justin Jackson,1.0,1.0,SAC,1.0,0.0,False,0.0,4.0,0.0,0.0,0.0,1.0,0.0,0.0,96.1,6005.05
1.2,1.0,974,30.0,2.0,5.0,2.0,5.0,0021800666,0.0,4.0,0.0,131.4,4.0,0.0,4.2,-11.0,2.0,21.0,4.0,1.0,104.97,0.0,0.0,2.0,4.0,5.0,0.0,0.0,4.0,Harry Giles III,0.0,3.0,SAC,0.0,4.0,False,2.0,9.0,0.0,0.0,0.0,1.0,0.0,0.0,97.2,4090.8
0.2,0.0,106,5.0,0.0,0.0,0.0,0.0,0021800666,0.0,0.0,0.0,125.0,0.0,0.0,3.5,-3.0,0.0,5.0,0.0,0.0,108.68,0.0,0.0,0.0,1.0,2.0,0.0,0.0,0.0,Frank Mason,0.0,0.0,SAC,0.0,0.0,False,1.0,0.0,0.0,0.0,0.0,0.0,0.0,0.0,50.0,371.0
0.1,0.0,106,6.0,0.0,0.0,0.0,0.0,0021800666,0.0,0.0,0.0,125.0,0.0,0.0,4.89,-3.0,0.0,3.0,0.0,0.0,108.68,0.0,0.0,0.0,0.0,0.0,0.0,2.0,0.0,Ben McLemore,0.0,1.0,SAC,0.0,0.0,False,0.0,0.0,0.0,0.0,0.0,0.0,0.0,0.0,50.0,518.3399999999999
0.0,0.0,0,0.0,0.0,0.0,0.0,0.0,0021800666,0.0,0.0,0.0,0.0,0.0,0.0,0.0,0.0,0.0,0.0,0.0,0.0,0.0,0.0,0.0,0.0,0.0,0.0,0.0,0.0,0.0,Kosta Koufos,0.0,0.0,SAC,0.0,0.0,False,0.0,0.0,0.0,0.0,0.0,0.0,0.0,0.0,0.0,0.0
1.4,3.0,1603,38.0,3.0,10.0,2.0,0.0,0021800666,3.0,2.0,1.0,96.6,3.0,1.0,4.54,6.0,1.0,26.0,4.0,3.0,104.2,0.0,0.0,2.0,1.0,5.0,2.0,2.0,6.0,Nicolas Batum,1.0,3.0,CHA,0.0,3.0,True,0.0,9.0,2.0,0.0,0.0,5.0,0.0,0.0,110.5,7277.62
1.0,1.0,1770,44.0,4.0,7.0,4.0,1.0,0021800666,2.0,10.0,0.0,100.0,2.0,0.0,3.96,4.0,1.0,34.0,5.0,1.0,104.14,0.0,0.0,0.0,0.0,1.0,4.0,6.0,2.0,Marvin Williams,0.0,0.0,CHA,3.0,0.0,True,1.0,4.0,3.0,1.0,0.0,1.0,0.0,0.0,109.5,7009.2
0.4,1.0,565,16.0,2.0,3.0,4.0,1.0,0021800666,0.0,4.0,0.0,142.1,0.0,1.0,4.21,-13.0,1.0,15.0,1.0,0.0,94.3,0.0,0.0,3.0,0.0,2.0,0.0,0.0,0.0,Bismack Biyombo,0.0,0.0,CHA,0.0,0.0,True,3.0,0.0,0.0,1.0,0.0,0.0,0.0,0.0,77.8,2378.65
1.5,0.0,1579,36.0,0.0,5.0,3.0,0.0,0021800666,6.0,0.0,0.0,91.2,1.0,1.0,4.39,7.0,0.0,16.0,4.0,1.0,103.05,0.0,0.0,4.0,0.0,5.0,2.0,7.0,2.0,Jeremy Lamb,3.0,7.0,CHA,2.0,3.0,True,1.0,2.0,2.0,0.0,0.0,2.0,0.0,0.0,105.4,6931.8099999999995
6.6,1.0,1722,79.0,3.0,5.0,5.0,0.0,0021800666,3.0,0.0,0.0,96.7,5.0,2.0,4.19,4.0,0.0,55.0,2.0,3.0,100.35,0.0,0.0,4.0,0.0,6.0,0.0,10.0,2.0,Kemba Walker,6.0,11.0,CHA,3.0,2.0,True,0.0,13.0,0.0,1.0,0.0,2.0,0.0,0.0,103.3,7215.18
1.3,4.0,1530,53.0,5.0,17.0,9.0,3.0,0021800666,0.0,3.0,0.0,76.4,1.0,4.0,4.22,20.0,2.0,42.0,12.0,1.0,101.65,0.0,0.0,10.0,2.0,0.0,2.0,2.0,2.0,Willy Hernangomez,3.0,7.0,CHA,1.0,1.0,False,5.0,2.0,1.0,1.0,0.0,2.0,0.0,0.0,117.0,6456.599999999999
1.0,2.0,1340,29.0,2.0,5.0,6.0,1.0,0021800666,1.0,2.0,1.0,78.7,1.0,1.0,4.47,13.0,0.0,17.0,3.0,1.0,99.94,0.0,0.0,2.0,2.0,4.0,0.0,3.0,4.0,Miles Bridges,5.0,6.0,CHA,1.0,0.0,False,3.0,3.0,0.0,0.0,0.0,2.0,0.0,0.0,108.7,5989.799999999999
1.1,1.0,1815,37.0,3.0,3.0,5.0,0.0,0021800666,6.0,10.0,0.0,84.4,1.0,1.0,4.37,26.0,0.0,28.0,1.0,1.0,101.55,0.0,0.0,3.0,2.0,4.0,2.0,2.0,6.0,Michael Kidd-Gilchrist,4.0,5.0,CHA,0.0,0.0,False,1.0,2.0,2.0,0.0,1.0,7.0,0.0,0.0,125.0,7931.55
0.7,1.0,554,14.0,1.0,0.0,2.0,0.0,0021800666,2.0,0.0,0.0,115.8,0.0,0.0,4.05,2.0,0.0,10.0,0.0,0.0,93.57,0.0,0.0,0.0,0.0,1.0,1.0,3.0,0.0,Devonte' Graham,0.0,0.0,CHA,0.0,0.0,False,0.0,0.0,0.0,0.0,0.0,0.0,0.0,0.0,141.2,2243.7
4.6,0.0,1052,42.0,0.0,1.0,0.0,0.0,0021800666,1.0,0.0,0.0,92.1,6.0,1.0,4.55,12.0,0.0,28.0,1.0,1.0,104.03,0.0,0.0,1.0,1.0,8.0,2.0,1.0,4.0,Tony Parker,5.0,9.0,CHA,0.0,2.0,False,0.0,14.0,1.0,0.0,0.0,4.0,0.0,0.0,123.7,4786.599999999999
0.8,2.0,790,19.0,2.0,1.0,0.0,0.0,0021800666,4.0,0.0,0.0,82.8,1.0,0.0,4.49,13.0,0.0,13.0,1.0,0.0,107.54,0.0,0.0,0.0,1.0,3.0,0.0,2.0,0.0,Malik Monk,1.0,1.0,CHA,1.0,2.0,False,0.0,2.0,0.0,0.0,0.0,0.0,0.0,0.0,123.3,3547.1000000000004
0.1,0.0,80,3.0,0.0,0.0,0.0,0.0,0021800666,0.0,0.0,1.0,66.7,0.0,0.0,3.75,1.0,0.0,2.0,0.0,0.0,108.0,0.0,0.0,0.0,0.0,0.0,0.0,0.0,0.0,Dwayne Bacon,0.0,0.0,CHA,0.0,0.0,False,0.0,0.0,0.0,0.0,0.0,0.0,0.0,0.0,100.0,300.0
0.0,0.0,0,0.0,0.0,0.0,0.0,0.0,0021800666,0.0,0.0,0.0,0.0,0.0,0.0,0.0,0.0,0.0,0.0,0.0,0.0,0.0,0.0,0.0,0.0,0.0,0.0,0.0,0.0,0.0,Frank Kaminsky,0.0,0.0,CHA,0.0,0.0,False,0.0,0.0,0.0,0.0,0.0,0.0,0.0,0.0,0.0,0.0
1.2,2.0,1980,30.0,3.0,7.0,3.0,0.0,21800669.0,6.0,4.0,0.0,145.5,0.0,1.0,4.2,-19.0,0.0,19.0,4.0,1.0,96.0,1.0,0.0,4.0,0.0,1.0,1.0,1.0,0.0,Chandler Hutchison,6.0,8.0,CHI,0.0,0.0,True,1.0,0.0,1.0,0.0,0.0,0.0,0.0,0.0,116.7,8316.0
1.8,2.0,1509,58.0,8.0,11.0,5.0,0.0,21800669.0,1.0,2.0,0.0,135.8,1.0,1.0,4.29,-21.0,0.0,34.0,9.0,1.0,100.19,0.0,0.0,3.0,0.0,2.0,0.0,10.0,2.0,Lauri Markkanen,5.0,8.0,CHI,5.0,2.0,True,1.0,2.0,0.0,0.0,1.0,2.0,0.0,0.0,98.1,6473.61
1.6,1.0,1669,57.0,2.0,8.0,0.0,1.0,21800669.0,1.0,9.0,0.0,142.4,4.0,7.0,4.14,-25.0,3.0,43.0,6.0,1.0,100.08,0.0,0.0,12.0,2.0,3.0,1.0,2.0,2.0,Bobby Portis,3.0,11.0,CHI,1.0,1.0,True,7.0,9.0,0.0,0.0,0.0,1.0,0.0,0.0,103.5,6909.66
3.3,2.0,1728,49.0,2.0,5.0,2.0,0.0,21800669.0,3.0,3.0,0.0,145.6,6.0,2.0,4.4,-29.0,0.0,31.0,3.0,1.0,94.17,0.0,0.0,5.0,1.0,7.0,0.0,3.0,0.0,Zach LaVine,4.0,12.0,CHI,0.0,2.0,True,3.0,13.0,0.0,0.0,0.0,0.0,0.0,0.0,96.4,7603.200000000001
5.4,2.0,1792,59.0,2.0,1.0,5.0,0.0,21800669.0,7.0,1.0,0.0,140.7,3.0,1.0,4.15,-26.0,0.0,47.0,0.0,0.0,95.63,0.0,0.0,1.0,0.0,11.0,1.0,0.0,0.0,Kris Dunn,3.0,8.0,CHI,0.0,1.0,True,1.0,7.0,0.0,0.0,0.0,0.0,0.0,0.0,95.0,7436.800000000001
0.9,0.0,1504,22.0,0.0,0.0,2.0,0.0,21800669.0,3.0,1.0,0.0,133.3,4.0,0.0,3.83,-9.0,0.0,14.0,0.0,1.0,96.7,0.0,0.0,0.0,0.0,2.0,0.0,2.0,0.0,Wayne Selden,0.0,2.0,CHI,0.0,1.0,False,0.0,9.0,1.0,0.0,0.0,0.0,0.0,0.0,118.0,5760.32
2.8,0.0,742,32.0,0.0,2.0,0.0,0.0,21800669.0,2.0,0.0,0.0,144.0,4.0,0.0,4.16,-4.0,0.0,30.0,2.0,1.0,97.04,0.0,0.0,1.0,0.0,6.0,0.0,2.0,0.0,Ryan Arcidiacono,0.0,0.0,CHI,0.0,0.0,False,0.0,12.0,0.0,0.0,0.0,0.0,0.0,0.0,128.0,3086.7200000000003
1.1,4.0,1141,35.0,4.0,5.0,8.0,5.0,21800669.0,1.0,10.0,1.0,129.7,0.0,3.0,3.85,-4.0,1.0,22.0,3.0,0.0,92.13,0.0,0.0,3.0,5.0,3.0,1.0,1.0,2.0,Robin Lopez,8.0,9.0,CHI,0.0,1.0,False,7.0,0.0,0.0,1.0,0.0,1.0,0.0,0.0,122.2,4392.85
1.2,0.0,1095,38.0,2.0,3.0,6.0,2.0,21800669.0,2.0,1.0,0.0,147.1,2.0,1.0,4.07,-10.0,0.0,29.0,2.0,1.0,90.76,0.0,0.0,2.0,1.0,3.0,1.0,3.0,4.0,Jabari Parker,3.0,4.0,CHI,2.0,1.0,False,1.0,4.0,0.0,1.0,0.0,3.0,0.0,0.0,114.3,4456.650000000001
0.3,0.0,548,7.0,0.0,0.0,2.0,0.0,21800669.0,0.0,1.0,0.0,109.5,0.0,0.0,4.36,-3.0,0.0,1.0,0.0,0.0,105.11,0.0,0.0,0.0,0.0,0.0,0.0,3.0,0.0,Antonio Blakeney,0.0,1.0,CHI,2.0,2.0,False,0.0,0.0,0.0,1.0,0.0,0.0,0.0,0.0,105.3,2389.28
0.1,0.0,346,2.0,0.0,0.0,2.0,0.0,21800669.0,1.0,1.0,0.0,123.1,0.0,0.0,4.13,0.0,1.0,1.0,0.0,0.0,104.05,0.0,0.0,0.0,0.0,0.0,0.0,0.0,0.0,Cristiano Felicio,1.0,1.0,CHI,0.0,0.0,False,0.0,0.0,0.0,0.0,0.0,0.0,0.0,0.0,133.3,1428.98
1.3,1.0,346,13.0,1.0,0.0,1.0,0.0,21800669.0,1.0,0.0,0.0,123.1,3.0,0.0,4.62,0.0,0.0,9.0,0.0,1.0,104.05,0.0,0.0,0.0,0.0,2.0,1.0,1.0,0.0,Shaquille Harrison,1.0,1.0,CHI,0.0,1.0,False,0.0,8.0,1.0,0.0,0.0,0.0,0.0,0.0,133.3,1598.52
0.6,0.0,1408,19.0,1.0,7.0,2.0,0.0,21800669.0,3.0,2.0,1.0,100.0,0.0,0.0,4.55,23.0,0.0,12.0,5.0,2.0,97.15,0.0,0.0,1.0,0.0,0.0,0.0,6.0,0.0,Torrey Craig,0.0,1.0,DEN,4.0,1.0,True,0.0,0.0,0.0,1.0,1.0,1.0,0.0,0.0,145.8,6406.4
1.3,3.0,1524,33.0,8.0,9.0,6.0,2.0,21800669.0,5.0,1.0,0.0,108.0,2.0,2.0,3.93,27.0,1.0,23.0,6.0,1.0,95.43,0.0,0.0,2.0,2.0,4.0,1.0,2.0,4.0,Paul Millsap,3.0,4.0,DEN,2.0,1.0,True,3.0,6.0,1.0,0.0,0.0,2.0,0.0,0.0,158.8,5989.320000000001
2.9,2.0,1528,75.0,6.0,7.0,10.0,9.0,21800669.0,2.0,4.0,0.0,96.2,11.0,4.0,3.97,26.0,4.0,52.0,4.0,1.0,97.07,0.0,0.0,7.0,5.0,15.0,0.0,3.0,4.0,Nikola Jokic,6.0,15.0,DEN,0.0,2.0,True,10.0,31.0,1.0,1.0,2.0,6.0,1.0,0.0,149.0,6066.16
1.5,0.0,2033,36.0,1.0,11.0,4.0,0.0,21800669.0,1.0,0.0,0.0,107.4,1.0,2.0,4.04,26.0,0.0,28.0,7.0,3.0,97.74,0.0,0.0,2.0,1.0,3.0,0.0,3.0,0.0,Malik Beasley,3.0,4.0,DEN,2.0,1.0,True,4.0,3.0,0.0,0.0,1.0,1.0,0.0,0.0,141.4,8213.32
4.9,1.0,1744,70.0,2.0,5.0,3.0,0.0,21800669.0,3.0,0.0,1.0,100.0,5.0,1.0,4.13,27.0,2.0,50.0,1.0,4.0,94.95,0.0,0.0,1.0,0.0,9.0,1.0,11.0,2.0,Jamal Murray,1.0,5.0,DEN,7.0,1.0,True,2.0,11.0,0.0,0.0,0.0,2.0,0.0,0.0,149.1,7202.72
1.0,0.0,1182,31.0,0.0,3.0,5.0,2.0,21800669.0,0.0,1.0,0.0,110.8,4.0,0.0,4.17,10.0,6.0,26.0,2.0,0.0,91.37,0.0,0.0,2.0,0.0,2.0,1.0,0.0,0.0,Mason Plumlee,4.0,4.0,DEN,0.0,0.0,False,2.0,9.0,1.0,0.0,0.0,0.0,0.0,0.0,134.2,4928.94
1.2,0.0,1117,21.0,0.0,2.0,0.0,0.0,21800669.0,0.0,0.0,1.0,113.5,2.0,1.0,4.3,7.0,0.0,9.0,0.0,0.0,95.42,0.0,0.0,3.0,1.0,1.0,1.0,3.0,0.0,Gary Harris,4.0,8.0,DEN,2.0,1.0,False,1.0,4.0,0.0,0.0,0.0,0.0,0.0,0.0,132.4,4803.099999999999
3.0,0.0,966,43.0,1.0,1.0,2.0,0.0,21800669.0,0.0,0.0,0.0,106.3,5.0,0.0,4.12,8.0,0.0,35.0,1.0,0.0,93.92,0.0,0.0,0.0,1.0,7.0,0.0,3.0,0.0,Monte Morris,3.0,4.0,DEN,0.0,0.0,False,0.0,13.0,0.0,0.0,0.0,0.0,0.0,0.0,135.5,3979.92
1.6,3.0,1262,40.0,3.0,4.0,4.0,0.0,21800669.0,2.0,3.0,0.0,114.0,2.0,1.0,3.87,3.0,1.0,28.0,3.0,1.0,98.13,0.0,0.0,2.0,1.0,5.0,0.0,3.0,2.0,Trey Lyles,3.0,7.0,DEN,2.0,0.0,False,1.0,4.0,1.0,0.0,0.0,0.0,0.0,0.0,120.9,4883.9400000000005
0.8,2.0,1108,24.0,3.0,3.0,6.0,0.0,21800669.0,0.0,1.0,0.0,121.6,1.0,2.0,4.31,5.0,1.0,19.0,3.0,1.0,97.47,0.0,0.0,2.0,0.0,1.0,1.0,2.0,0.0,Juancho Hernangomez,3.0,3.0,DEN,1.0,0.0,False,2.0,2.0,2.0,0.0,0.0,0.0,0.0,0.0,131.6,4775.48
0.1,2.0,264,6.0,2.0,0.0,2.0,0.0,21800669.0,0.0,0.0,0.0,160.0,0.0,0.0,4.33,-6.0,0.0,2.0,0.0,0.0,109.09,0.0,0.0,0.0,0.0,0.0,0.0,3.0,0.0,Tyler Lydon,0.0,1.0,DEN,0.0,0.0,False,0.0,0.0,0.0,0.0,0.0,0.0,0.0,0.0,100.0,1143.1200000000001
1.1,0.0,264,11.0,0.0,0.0,0.0,0.0,21800669.0,0.0,0.0,0.0,160.0,1.0,0.0,4.42,-6.0,0.0,7.0,0.0,0.0,109.09,0.0,0.0,0.0,0.0,2.0,0.0,1.0,4.0,Brandon Goodwin,0.0,0.0,DEN,0.0,0.0,False,0.0,3.0,0.0,0.0,0.0,3.0,0.0,0.0,100.0,1166.8799999999999
0.0,0.0,0,0.0,0.0,0.0,0.0,0.0,00000000.0,0.0,0.0,0.0,0.0,0.0,0.0,0.0,0.0,0.0,0.0,0.0,0.0,0.0,0.0,0.0,0.0,0.0,0.0,0.0,0.0,0.0,Eric Montross,0.0,0.0,0,0.0,0.0,False,0.0,0.0,0.0,0.0,0.0,0.0,0.0,0.0,0.0,0.0
